^C:\HOMEWORK\CAPSTONE-YANGYI\KINECT\TEMP\DEBUG\INTERMIDIATES\KINECTENGINE\BATARANG.OBJ|C:\HOMEWORK\CAPSTONE-YANGYI\KINECT\TEMP\DEBUG\INTERMIDIATES\KINECTENGINE\BATMAN.OBJ|C:\HOMEWORK\CAPSTONE-YANGYI\KINECT\TEMP\DEBUG\INTERMIDIATES\KINECTENGINE\CUBEENEMY.OBJ|C:\HOMEWORK\CAPSTONE-YANGYI\KINECT\TEMP\DEBUG\INTERMIDIATES\KINECTENGINE\EARTH.OBJ|C:\HOMEWORK\CAPSTONE-YANGYI\KINECT\TEMP\DEBUG\INTERMIDIATES\KINECTENGINE\ENEMYSPAWNER.OBJ|C:\HOMEWORK\CAPSTONE-YANGYI\KINECT\TEMP\DEBUG\INTERMIDIATES\KINECTENGINE\JEDI.OBJ|C:\HOMEWORK\CAPSTONE-YANGYI\KINECT\TEMP\DEBUG\INTERMIDIATES\KINECTENGINE\KINECTGAME.OBJ|C:\HOMEWORK\CAPSTONE-YANGYI\KINECT\TEMP\DEBUG\INTERMIDIATES\KINECTENGINE\KINECTGAMEWINDOW.OBJ|C:\HOMEWORK\CAPSTONE-YANGYI\KINECT\TEMP\DEBUG\INTERMIDIATES\KINECTENGINE\KINECTGAMEWINDOW_MOC.OBJ|C:\HOMEWORK\CAPSTONE-YANGYI\KINECT\TEMP\DEBUG\INTERMIDIATES\KINECTENGINE\KINECTWINDOW.OBJ|C:\HOMEWORK\CAPSTONE-YANGYI\KINECT\TEMP\DEBUG\INTERMIDIATES\KINECTENGINE\LIGHTSABER.OBJ|C:\HOMEWORK\CAPSTONE-YANGYI\KINECT\TEMP\DEBUG\INTERMIDIATES\KINECTENGINE\MAIN.OBJ|C:\HOMEWORK\CAPSTONE-YANGYI\KINECT\TEMP\DEBUG\INTERMIDIATES\KINECTENGINE\SPHEREDEBUGSHAPE.OBJ|C:\HOMEWORK\CAPSTONE-YANGYI\KINECT\TEMP\DEBUG\INTERMIDIATES\KINECTENGINE\SPHEREENEMY.OBJ|C:\HOMEWORK\CAPSTONE-YANGYI\KINECT\TEMP\DEBUG\INTERMIDIATES\KINECTENGINE\WIZARD.OBJ
C:\HOMEWORK\CAPSTONE-YANGYI\KINECT\TEMP\DEBUG\BIN\KINECTENGINE\KINECTENGINE.ILK
C:\HOMEWORK\CAPSTONE-YANGYI\KINECT\TEMP\DEBUG\BIN\KINECTENGINE\KINECTENGINE.EXE
C:\HOMEWORK\CAPSTONE-YANGYI\KINECT\TEMP\DEBUG\BIN\KINECTENGINE\KINECTENGINE.PDB
