^C:\HOMEWORK\CAPSTONE-YANGYI\ENGINE\ACTORS\ACTOR.CPP
/c /IC:\Homework\BatEngine\Middleware\Kinect\inc /I"C:\Homework\capstone-YangYi\TopDefense\..\Core\include" /I"C:\Homework\capstone-YangYi\TopDefense\..\Middleware\NeumontTools\include" /I"C:\Homework\capstone-YangYi\TopDefense\..\Engine\RenderComponents" /I"C:\Homework\capstone-YangYi\TopDefense\..\Middleware\glew\include" /I"C:\Homework\capstone-YangYi\TopDefense\..\Middleware\Qt\include" /I"C:\Homework\capstone-YangYi\TopDefense\..\Engine\UIData\\" /I"C:\Homework\capstone-YangYi\TopDefense\..\Engine\\" /I"C:\Homework\capstone-YangYi\TopDefense\..\Middleware\glm\\" /I"C:\Homework\capstone-YangYi\TopDefense\..\Debug\\" /I"C:\Homework\capstone-YangYi\TopDefense\..\Middleware\FreeImage\include" /AI"C:\Homework\capstone-YangYi\TopDefense\\" /AI"C:\Homework\capstone-YangYi\TopDefense\..\Engine" /AI"C:\Homework\capstone-YangYi\TopDefense\..\Middleware\glm\\" /AI"C:\Homework\capstone-YangYi\TopDefense\..\Debug\DebugGUI\\" /AI"C:\Homework\capstone-YangYi\TopDefense\..\Middleware\glew" /AI"C:\Homework\capstone-YangYi\TopDefense\..\Middleware\FreeImage\include" /Zi /nologo /W4 /WX- /Od /D DEBUG_ON /D DEBUG_SHAPE_ON /D WIN32 /D _DEBUG /D _WINDOWS /D _USRDLL /D ENGINE_EXPORTS /D _WINDLL /D _UNICODE /D UNICODE /Gm /EHsc /RTC1 /MDd /GS /fp:precise /Zc:wchar_t /Zc:forScope /Fo"X64\DEBUG\\" /Fd"X64\DEBUG\VC110.PDB" /Gd /TP C:\HOMEWORK\CAPSTONE-YANGYI\ENGINE\ACTORS\ACTOR.CPP
^C:\HOMEWORK\CAPSTONE-YANGYI\ENGINE\ACTORS\ACTORCONTAINER.CPP
/c /IC:\Homework\BatEngine\Middleware\Kinect\inc /I"C:\Homework\capstone-YangYi\TopDefense\..\Core\include" /I"C:\Homework\capstone-YangYi\TopDefense\..\Middleware\NeumontTools\include" /I"C:\Homework\capstone-YangYi\TopDefense\..\Engine\RenderComponents" /I"C:\Homework\capstone-YangYi\TopDefense\..\Middleware\glew\include" /I"C:\Homework\capstone-YangYi\TopDefense\..\Middleware\Qt\include" /I"C:\Homework\capstone-YangYi\TopDefense\..\Engine\UIData\\" /I"C:\Homework\capstone-YangYi\TopDefense\..\Engine\\" /I"C:\Homework\capstone-YangYi\TopDefense\..\Middleware\glm\\" /I"C:\Homework\capstone-YangYi\TopDefense\..\Debug\\" /I"C:\Homework\capstone-YangYi\TopDefense\..\Middleware\FreeImage\include" /AI"C:\Homework\capstone-YangYi\TopDefense\\" /AI"C:\Homework\capstone-YangYi\TopDefense\..\Engine" /AI"C:\Homework\capstone-YangYi\TopDefense\..\Middleware\glm\\" /AI"C:\Homework\capstone-YangYi\TopDefense\..\Debug\DebugGUI\\" /AI"C:\Homework\capstone-YangYi\TopDefense\..\Middleware\glew" /AI"C:\Homework\capstone-YangYi\TopDefense\..\Middleware\FreeImage\include" /Zi /nologo /W4 /WX- /Od /D DEBUG_ON /D DEBUG_SHAPE_ON /D WIN32 /D _DEBUG /D _WINDOWS /D _USRDLL /D ENGINE_EXPORTS /D _WINDLL /D _UNICODE /D UNICODE /Gm /EHsc /RTC1 /MDd /GS /fp:precise /Zc:wchar_t /Zc:forScope /Fo"X64\DEBUG\\" /Fd"X64\DEBUG\VC110.PDB" /Gd /TP C:\HOMEWORK\CAPSTONE-YANGYI\ENGINE\ACTORS\ACTORCONTAINER.CPP
^C:\HOMEWORK\CAPSTONE-YANGYI\ENGINE\ACTORS\COMPONENTS\PHYSICS\CLOTH.CPP
/c /IC:\Homework\BatEngine\Middleware\Kinect\inc /I"C:\Homework\capstone-YangYi\TopDefense\..\Core\include" /I"C:\Homework\capstone-YangYi\TopDefense\..\Middleware\NeumontTools\include" /I"C:\Homework\capstone-YangYi\TopDefense\..\Engine\RenderComponents" /I"C:\Homework\capstone-YangYi\TopDefense\..\Middleware\glew\include" /I"C:\Homework\capstone-YangYi\TopDefense\..\Middleware\Qt\include" /I"C:\Homework\capstone-YangYi\TopDefense\..\Engine\UIData\\" /I"C:\Homework\capstone-YangYi\TopDefense\..\Engine\\" /I"C:\Homework\capstone-YangYi\TopDefense\..\Middleware\glm\\" /I"C:\Homework\capstone-YangYi\TopDefense\..\Debug\\" /I"C:\Homework\capstone-YangYi\TopDefense\..\Middleware\FreeImage\include" /AI"C:\Homework\capstone-YangYi\TopDefense\\" /AI"C:\Homework\capstone-YangYi\TopDefense\..\Engine" /AI"C:\Homework\capstone-YangYi\TopDefense\..\Middleware\glm\\" /AI"C:\Homework\capstone-YangYi\TopDefense\..\Debug\DebugGUI\\" /AI"C:\Homework\capstone-YangYi\TopDefense\..\Middleware\glew" /AI"C:\Homework\capstone-YangYi\TopDefense\..\Middleware\FreeImage\include" /Zi /nologo /W4 /WX- /Od /D DEBUG_ON /D DEBUG_SHAPE_ON /D WIN32 /D _DEBUG /D _WINDOWS /D _USRDLL /D ENGINE_EXPORTS /D _WINDLL /D _UNICODE /D UNICODE /Gm /EHsc /RTC1 /MDd /GS /fp:precise /Zc:wchar_t /Zc:forScope /Fo"X64\DEBUG\\" /Fd"X64\DEBUG\VC110.PDB" /Gd /TP C:\HOMEWORK\CAPSTONE-YANGYI\ENGINE\ACTORS\COMPONENTS\PHYSICS\CLOTH.CPP
^C:\HOMEWORK\CAPSTONE-YANGYI\ENGINE\ACTORS\GAMEOBJECTS\CLOTHACTOR.CPP
/c /IC:\Homework\BatEngine\Middleware\Kinect\inc /I"C:\Homework\capstone-YangYi\TopDefense\..\Core\include" /I"C:\Homework\capstone-YangYi\TopDefense\..\Middleware\NeumontTools\include" /I"C:\Homework\capstone-YangYi\TopDefense\..\Engine\RenderComponents" /I"C:\Homework\capstone-YangYi\TopDefense\..\Middleware\glew\include" /I"C:\Homework\capstone-YangYi\TopDefense\..\Middleware\Qt\include" /I"C:\Homework\capstone-YangYi\TopDefense\..\Engine\UIData\\" /I"C:\Homework\capstone-YangYi\TopDefense\..\Engine\\" /I"C:\Homework\capstone-YangYi\TopDefense\..\Middleware\glm\\" /I"C:\Homework\capstone-YangYi\TopDefense\..\Debug\\" /I"C:\Homework\capstone-YangYi\TopDefense\..\Middleware\FreeImage\include" /AI"C:\Homework\capstone-YangYi\TopDefense\\" /AI"C:\Homework\capstone-YangYi\TopDefense\..\Engine" /AI"C:\Homework\capstone-YangYi\TopDefense\..\Middleware\glm\\" /AI"C:\Homework\capstone-YangYi\TopDefense\..\Debug\DebugGUI\\" /AI"C:\Homework\capstone-YangYi\TopDefense\..\Middleware\glew" /AI"C:\Homework\capstone-YangYi\TopDefense\..\Middleware\FreeImage\include" /Zi /nologo /W4 /WX- /Od /D DEBUG_ON /D DEBUG_SHAPE_ON /D WIN32 /D _DEBUG /D _WINDOWS /D _USRDLL /D ENGINE_EXPORTS /D _WINDLL /D _UNICODE /D UNICODE /Gm /EHsc /RTC1 /MDd /GS /fp:precise /Zc:wchar_t /Zc:forScope /Fo"X64\DEBUG\\" /Fd"X64\DEBUG\VC110.PDB" /Gd /TP C:\HOMEWORK\CAPSTONE-YANGYI\ENGINE\ACTORS\GAMEOBJECTS\CLOTHACTOR.CPP
^C:\HOMEWORK\CAPSTONE-YANGYI\ENGINE\ACTORS\GAMEOBJECTS\KINECTPLAYER.CPP
/c /IC:\Homework\BatEngine\Middleware\Kinect\inc /I"C:\Homework\capstone-YangYi\TopDefense\..\Core\include" /I"C:\Homework\capstone-YangYi\TopDefense\..\Middleware\NeumontTools\include" /I"C:\Homework\capstone-YangYi\TopDefense\..\Engine\RenderComponents" /I"C:\Homework\capstone-YangYi\TopDefense\..\Middleware\glew\include" /I"C:\Homework\capstone-YangYi\TopDefense\..\Middleware\Qt\include" /I"C:\Homework\capstone-YangYi\TopDefense\..\Engine\UIData\\" /I"C:\Homework\capstone-YangYi\TopDefense\..\Engine\\" /I"C:\Homework\capstone-YangYi\TopDefense\..\Middleware\glm\\" /I"C:\Homework\capstone-YangYi\TopDefense\..\Debug\\" /I"C:\Homework\capstone-YangYi\TopDefense\..\Middleware\FreeImage\include" /AI"C:\Homework\capstone-YangYi\TopDefense\\" /AI"C:\Homework\capstone-YangYi\TopDefense\..\Engine" /AI"C:\Homework\capstone-YangYi\TopDefense\..\Middleware\glm\\" /AI"C:\Homework\capstone-YangYi\TopDefense\..\Debug\DebugGUI\\" /AI"C:\Homework\capstone-YangYi\TopDefense\..\Middleware\glew" /AI"C:\Homework\capstone-YangYi\TopDefense\..\Middleware\FreeImage\include" /Zi /nologo /W4 /WX- /Od /D DEBUG_ON /D DEBUG_SHAPE_ON /D WIN32 /D _DEBUG /D _WINDOWS /D _USRDLL /D ENGINE_EXPORTS /D _WINDLL /D _UNICODE /D UNICODE /Gm /EHsc /RTC1 /MDd /GS /fp:precise /Zc:wchar_t /Zc:forScope /Fo"X64\DEBUG\\" /Fd"X64\DEBUG\VC110.PDB" /Gd /TP C:\HOMEWORK\CAPSTONE-YANGYI\ENGINE\ACTORS\GAMEOBJECTS\KINECTPLAYER.CPP
^C:\HOMEWORK\CAPSTONE-YANGYI\ENGINE\ACTORS\GAMEOBJECTS\STATICMESH\GROUNDACTOR.CPP
/c /IC:\Homework\BatEngine\Middleware\Kinect\inc /I"C:\Homework\capstone-YangYi\TopDefense\..\Core\include" /I"C:\Homework\capstone-YangYi\TopDefense\..\Middleware\NeumontTools\include" /I"C:\Homework\capstone-YangYi\TopDefense\..\Engine\RenderComponents" /I"C:\Homework\capstone-YangYi\TopDefense\..\Middleware\glew\include" /I"C:\Homework\capstone-YangYi\TopDefense\..\Middleware\Qt\include" /I"C:\Homework\capstone-YangYi\TopDefense\..\Engine\UIData\\" /I"C:\Homework\capstone-YangYi\TopDefense\..\Engine\\" /I"C:\Homework\capstone-YangYi\TopDefense\..\Middleware\glm\\" /I"C:\Homework\capstone-YangYi\TopDefense\..\Debug\\" /I"C:\Homework\capstone-YangYi\TopDefense\..\Middleware\FreeImage\include" /AI"C:\Homework\capstone-YangYi\TopDefense\\" /AI"C:\Homework\capstone-YangYi\TopDefense\..\Engine" /AI"C:\Homework\capstone-YangYi\TopDefense\..\Middleware\glm\\" /AI"C:\Homework\capstone-YangYi\TopDefense\..\Debug\DebugGUI\\" /AI"C:\Homework\capstone-YangYi\TopDefense\..\Middleware\glew" /AI"C:\Homework\capstone-YangYi\TopDefense\..\Middleware\FreeImage\include" /Zi /nologo /W4 /WX- /Od /D DEBUG_ON /D DEBUG_SHAPE_ON /D WIN32 /D _DEBUG /D _WINDOWS /D _USRDLL /D ENGINE_EXPORTS /D _WINDLL /D _UNICODE /D UNICODE /Gm /EHsc /RTC1 /MDd /GS /fp:precise /Zc:wchar_t /Zc:forScope /Fo"X64\DEBUG\\" /Fd"X64\DEBUG\VC110.PDB" /Gd /TP C:\HOMEWORK\CAPSTONE-YANGYI\ENGINE\ACTORS\GAMEOBJECTS\STATICMESH\GROUNDACTOR.CPP
^C:\HOMEWORK\CAPSTONE-YANGYI\ENGINE\AI\ASTARMANAGER.CPP
/c /IC:\Homework\BatEngine\Middleware\Kinect\inc /I"C:\Homework\capstone-YangYi\TopDefense\..\Core\include" /I"C:\Homework\capstone-YangYi\TopDefense\..\Middleware\NeumontTools\include" /I"C:\Homework\capstone-YangYi\TopDefense\..\Engine\RenderComponents" /I"C:\Homework\capstone-YangYi\TopDefense\..\Middleware\glew\include" /I"C:\Homework\capstone-YangYi\TopDefense\..\Middleware\Qt\include" /I"C:\Homework\capstone-YangYi\TopDefense\..\Engine\UIData\\" /I"C:\Homework\capstone-YangYi\TopDefense\..\Engine\\" /I"C:\Homework\capstone-YangYi\TopDefense\..\Middleware\glm\\" /I"C:\Homework\capstone-YangYi\TopDefense\..\Debug\\" /I"C:\Homework\capstone-YangYi\TopDefense\..\Middleware\FreeImage\include" /AI"C:\Homework\capstone-YangYi\TopDefense\\" /AI"C:\Homework\capstone-YangYi\TopDefense\..\Engine" /AI"C:\Homework\capstone-YangYi\TopDefense\..\Middleware\glm\\" /AI"C:\Homework\capstone-YangYi\TopDefense\..\Debug\DebugGUI\\" /AI"C:\Homework\capstone-YangYi\TopDefense\..\Middleware\glew" /AI"C:\Homework\capstone-YangYi\TopDefense\..\Middleware\FreeImage\include" /Zi /nologo /W4 /WX- /Od /D DEBUG_ON /D DEBUG_SHAPE_ON /D WIN32 /D _DEBUG /D _WINDOWS /D _USRDLL /D ENGINE_EXPORTS /D _WINDLL /D _UNICODE /D UNICODE /Gm /EHsc /RTC1 /MDd /GS /fp:precise /Zc:wchar_t /Zc:forScope /Fo"X64\DEBUG\\" /Fd"X64\DEBUG\VC110.PDB" /Gd /TP C:\HOMEWORK\CAPSTONE-YANGYI\ENGINE\AI\ASTARMANAGER.CPP
^C:\HOMEWORK\CAPSTONE-YANGYI\ENGINE\AI\ASTARMANAGERDEBUG.CPP
/c /IC:\Homework\BatEngine\Middleware\Kinect\inc /I"C:\Homework\capstone-YangYi\TopDefense\..\Core\include" /I"C:\Homework\capstone-YangYi\TopDefense\..\Middleware\NeumontTools\include" /I"C:\Homework\capstone-YangYi\TopDefense\..\Engine\RenderComponents" /I"C:\Homework\capstone-YangYi\TopDefense\..\Middleware\glew\include" /I"C:\Homework\capstone-YangYi\TopDefense\..\Middleware\Qt\include" /I"C:\Homework\capstone-YangYi\TopDefense\..\Engine\UIData\\" /I"C:\Homework\capstone-YangYi\TopDefense\..\Engine\\" /I"C:\Homework\capstone-YangYi\TopDefense\..\Middleware\glm\\" /I"C:\Homework\capstone-YangYi\TopDefense\..\Debug\\" /I"C:\Homework\capstone-YangYi\TopDefense\..\Middleware\FreeImage\include" /AI"C:\Homework\capstone-YangYi\TopDefense\\" /AI"C:\Homework\capstone-YangYi\TopDefense\..\Engine" /AI"C:\Homework\capstone-YangYi\TopDefense\..\Middleware\glm\\" /AI"C:\Homework\capstone-YangYi\TopDefense\..\Debug\DebugGUI\\" /AI"C:\Homework\capstone-YangYi\TopDefense\..\Middleware\glew" /AI"C:\Homework\capstone-YangYi\TopDefense\..\Middleware\FreeImage\include" /Zi /nologo /W4 /WX- /Od /D DEBUG_ON /D DEBUG_SHAPE_ON /D WIN32 /D _DEBUG /D _WINDOWS /D _USRDLL /D ENGINE_EXPORTS /D _WINDLL /D _UNICODE /D UNICODE /Gm /EHsc /RTC1 /MDd /GS /fp:precise /Zc:wchar_t /Zc:forScope /Fo"X64\DEBUG\\" /Fd"X64\DEBUG\VC110.PDB" /Gd /TP C:\HOMEWORK\CAPSTONE-YANGYI\ENGINE\AI\ASTARMANAGERDEBUG.CPP
^C:\HOMEWORK\CAPSTONE-YANGYI\ENGINE\AI\DECISIONTREENODE.CPP
/c /IC:\Homework\BatEngine\Middleware\Kinect\inc /I"C:\Homework\capstone-YangYi\TopDefense\..\Core\include" /I"C:\Homework\capstone-YangYi\TopDefense\..\Middleware\NeumontTools\include" /I"C:\Homework\capstone-YangYi\TopDefense\..\Engine\RenderComponents" /I"C:\Homework\capstone-YangYi\TopDefense\..\Middleware\glew\include" /I"C:\Homework\capstone-YangYi\TopDefense\..\Middleware\Qt\include" /I"C:\Homework\capstone-YangYi\TopDefense\..\Engine\UIData\\" /I"C:\Homework\capstone-YangYi\TopDefense\..\Engine\\" /I"C:\Homework\capstone-YangYi\TopDefense\..\Middleware\glm\\" /I"C:\Homework\capstone-YangYi\TopDefense\..\Debug\\" /I"C:\Homework\capstone-YangYi\TopDefense\..\Middleware\FreeImage\include" /AI"C:\Homework\capstone-YangYi\TopDefense\\" /AI"C:\Homework\capstone-YangYi\TopDefense\..\Engine" /AI"C:\Homework\capstone-YangYi\TopDefense\..\Middleware\glm\\" /AI"C:\Homework\capstone-YangYi\TopDefense\..\Debug\DebugGUI\\" /AI"C:\Homework\capstone-YangYi\TopDefense\..\Middleware\glew" /AI"C:\Homework\capstone-YangYi\TopDefense\..\Middleware\FreeImage\include" /Zi /nologo /W4 /WX- /Od /D DEBUG_ON /D DEBUG_SHAPE_ON /D WIN32 /D _DEBUG /D _WINDOWS /D _USRDLL /D ENGINE_EXPORTS /D _WINDLL /D _UNICODE /D UNICODE /Gm /EHsc /RTC1 /MDd /GS /fp:precise /Zc:wchar_t /Zc:forScope /Fo"X64\DEBUG\\" /Fd"X64\DEBUG\VC110.PDB" /Gd /TP C:\HOMEWORK\CAPSTONE-YANGYI\ENGINE\AI\DECISIONTREENODE.CPP
^C:\HOMEWORK\CAPSTONE-YANGYI\ENGINE\AI\NODE.CPP
/c /IC:\Homework\BatEngine\Middleware\Kinect\inc /I"C:\Homework\capstone-YangYi\TopDefense\..\Core\include" /I"C:\Homework\capstone-YangYi\TopDefense\..\Middleware\NeumontTools\include" /I"C:\Homework\capstone-YangYi\TopDefense\..\Engine\RenderComponents" /I"C:\Homework\capstone-YangYi\TopDefense\..\Middleware\glew\include" /I"C:\Homework\capstone-YangYi\TopDefense\..\Middleware\Qt\include" /I"C:\Homework\capstone-YangYi\TopDefense\..\Engine\UIData\\" /I"C:\Homework\capstone-YangYi\TopDefense\..\Engine\\" /I"C:\Homework\capstone-YangYi\TopDefense\..\Middleware\glm\\" /I"C:\Homework\capstone-YangYi\TopDefense\..\Debug\\" /I"C:\Homework\capstone-YangYi\TopDefense\..\Middleware\FreeImage\include" /AI"C:\Homework\capstone-YangYi\TopDefense\\" /AI"C:\Homework\capstone-YangYi\TopDefense\..\Engine" /AI"C:\Homework\capstone-YangYi\TopDefense\..\Middleware\glm\\" /AI"C:\Homework\capstone-YangYi\TopDefense\..\Debug\DebugGUI\\" /AI"C:\Homework\capstone-YangYi\TopDefense\..\Middleware\glew" /AI"C:\Homework\capstone-YangYi\TopDefense\..\Middleware\FreeImage\include" /Zi /nologo /W4 /WX- /Od /D DEBUG_ON /D DEBUG_SHAPE_ON /D WIN32 /D _DEBUG /D _WINDOWS /D _USRDLL /D ENGINE_EXPORTS /D _WINDLL /D _UNICODE /D UNICODE /Gm /EHsc /RTC1 /MDd /GS /fp:precise /Zc:wchar_t /Zc:forScope /Fo"X64\DEBUG\\" /Fd"X64\DEBUG\VC110.PDB" /Gd /TP C:\HOMEWORK\CAPSTONE-YANGYI\ENGINE\AI\NODE.CPP
^C:\HOMEWORK\CAPSTONE-YANGYI\ENGINE\CAMERA.CPP
/c /IC:\Homework\BatEngine\Middleware\Kinect\inc /I"C:\Homework\capstone-YangYi\TopDefense\..\Core\include" /I"C:\Homework\capstone-YangYi\TopDefense\..\Middleware\NeumontTools\include" /I"C:\Homework\capstone-YangYi\TopDefense\..\Engine\RenderComponents" /I"C:\Homework\capstone-YangYi\TopDefense\..\Middleware\glew\include" /I"C:\Homework\capstone-YangYi\TopDefense\..\Middleware\Qt\include" /I"C:\Homework\capstone-YangYi\TopDefense\..\Engine\UIData\\" /I"C:\Homework\capstone-YangYi\TopDefense\..\Engine\\" /I"C:\Homework\capstone-YangYi\TopDefense\..\Middleware\glm\\" /I"C:\Homework\capstone-YangYi\TopDefense\..\Debug\\" /I"C:\Homework\capstone-YangYi\TopDefense\..\Middleware\FreeImage\include" /AI"C:\Homework\capstone-YangYi\TopDefense\\" /AI"C:\Homework\capstone-YangYi\TopDefense\..\Engine" /AI"C:\Homework\capstone-YangYi\TopDefense\..\Middleware\glm\\" /AI"C:\Homework\capstone-YangYi\TopDefense\..\Debug\DebugGUI\\" /AI"C:\Homework\capstone-YangYi\TopDefense\..\Middleware\glew" /AI"C:\Homework\capstone-YangYi\TopDefense\..\Middleware\FreeImage\include" /Zi /nologo /W4 /WX- /Od /D DEBUG_ON /D DEBUG_SHAPE_ON /D WIN32 /D _DEBUG /D _WINDOWS /D _USRDLL /D ENGINE_EXPORTS /D _WINDLL /D _UNICODE /D UNICODE /Gm /EHsc /RTC1 /MDd /GS /fp:precise /Zc:wchar_t /Zc:forScope /Fo"X64\DEBUG\\" /Fd"X64\DEBUG\VC110.PDB" /Gd /TP C:\HOMEWORK\CAPSTONE-YANGYI\ENGINE\CAMERA.CPP
^C:\HOMEWORK\CAPSTONE-YANGYI\ENGINE\DEBUGTOOLS\DEBUGBUTTON.CPP
/c /IC:\Homework\BatEngine\Middleware\Kinect\inc /I"C:\Homework\capstone-YangYi\TopDefense\..\Core\include" /I"C:\Homework\capstone-YangYi\TopDefense\..\Middleware\NeumontTools\include" /I"C:\Homework\capstone-YangYi\TopDefense\..\Engine\RenderComponents" /I"C:\Homework\capstone-YangYi\TopDefense\..\Middleware\glew\include" /I"C:\Homework\capstone-YangYi\TopDefense\..\Middleware\Qt\include" /I"C:\Homework\capstone-YangYi\TopDefense\..\Engine\UIData\\" /I"C:\Homework\capstone-YangYi\TopDefense\..\Engine\\" /I"C:\Homework\capstone-YangYi\TopDefense\..\Middleware\glm\\" /I"C:\Homework\capstone-YangYi\TopDefense\..\Debug\\" /I"C:\Homework\capstone-YangYi\TopDefense\..\Middleware\FreeImage\include" /AI"C:\Homework\capstone-YangYi\TopDefense\\" /AI"C:\Homework\capstone-YangYi\TopDefense\..\Engine" /AI"C:\Homework\capstone-YangYi\TopDefense\..\Middleware\glm\\" /AI"C:\Homework\capstone-YangYi\TopDefense\..\Debug\DebugGUI\\" /AI"C:\Homework\capstone-YangYi\TopDefense\..\Middleware\glew" /AI"C:\Homework\capstone-YangYi\TopDefense\..\Middleware\FreeImage\include" /Zi /nologo /W4 /WX- /Od /D DEBUG_ON /D DEBUG_SHAPE_ON /D WIN32 /D _DEBUG /D _WINDOWS /D _USRDLL /D ENGINE_EXPORTS /D _WINDLL /D _UNICODE /D UNICODE /Gm /EHsc /RTC1 /MDd /GS /fp:precise /Zc:wchar_t /Zc:forScope /Fo"X64\DEBUG\\" /Fd"X64\DEBUG\VC110.PDB" /Gd /TP C:\HOMEWORK\CAPSTONE-YANGYI\ENGINE\DEBUGTOOLS\DEBUGBUTTON.CPP
^C:\HOMEWORK\CAPSTONE-YANGYI\ENGINE\DEBUGTOOLS\DEBUGBUTTON_MOC.CPP
/c /IC:\Homework\BatEngine\Middleware\Kinect\inc /I"C:\Homework\capstone-YangYi\TopDefense\..\Core\include" /I"C:\Homework\capstone-YangYi\TopDefense\..\Middleware\NeumontTools\include" /I"C:\Homework\capstone-YangYi\TopDefense\..\Engine\RenderComponents" /I"C:\Homework\capstone-YangYi\TopDefense\..\Middleware\glew\include" /I"C:\Homework\capstone-YangYi\TopDefense\..\Middleware\Qt\include" /I"C:\Homework\capstone-YangYi\TopDefense\..\Engine\UIData\\" /I"C:\Homework\capstone-YangYi\TopDefense\..\Engine\\" /I"C:\Homework\capstone-YangYi\TopDefense\..\Middleware\glm\\" /I"C:\Homework\capstone-YangYi\TopDefense\..\Debug\\" /I"C:\Homework\capstone-YangYi\TopDefense\..\Middleware\FreeImage\include" /AI"C:\Homework\capstone-YangYi\TopDefense\\" /AI"C:\Homework\capstone-YangYi\TopDefense\..\Engine" /AI"C:\Homework\capstone-YangYi\TopDefense\..\Middleware\glm\\" /AI"C:\Homework\capstone-YangYi\TopDefense\..\Debug\DebugGUI\\" /AI"C:\Homework\capstone-YangYi\TopDefense\..\Middleware\glew" /AI"C:\Homework\capstone-YangYi\TopDefense\..\Middleware\FreeImage\include" /Zi /nologo /W4 /WX- /Od /D DEBUG_ON /D DEBUG_SHAPE_ON /D WIN32 /D _DEBUG /D _WINDOWS /D _USRDLL /D ENGINE_EXPORTS /D _WINDLL /D _UNICODE /D UNICODE /Gm /EHsc /RTC1 /MDd /GS /fp:precise /Zc:wchar_t /Zc:forScope /Fo"X64\DEBUG\\" /Fd"X64\DEBUG\VC110.PDB" /Gd /TP C:\HOMEWORK\CAPSTONE-YANGYI\ENGINE\DEBUGTOOLS\DEBUGBUTTON_MOC.CPP
^C:\HOMEWORK\CAPSTONE-YANGYI\ENGINE\CSTOPWATCH.CPP
/c /IC:\Homework\BatEngine\Middleware\Kinect\inc /I"C:\Homework\capstone-YangYi\TopDefense\..\Core\include" /I"C:\Homework\capstone-YangYi\TopDefense\..\Middleware\NeumontTools\include" /I"C:\Homework\capstone-YangYi\TopDefense\..\Engine\RenderComponents" /I"C:\Homework\capstone-YangYi\TopDefense\..\Middleware\glew\include" /I"C:\Homework\capstone-YangYi\TopDefense\..\Middleware\Qt\include" /I"C:\Homework\capstone-YangYi\TopDefense\..\Engine\UIData\\" /I"C:\Homework\capstone-YangYi\TopDefense\..\Engine\\" /I"C:\Homework\capstone-YangYi\TopDefense\..\Middleware\glm\\" /I"C:\Homework\capstone-YangYi\TopDefense\..\Debug\\" /I"C:\Homework\capstone-YangYi\TopDefense\..\Middleware\FreeImage\include" /AI"C:\Homework\capstone-YangYi\TopDefense\\" /AI"C:\Homework\capstone-YangYi\TopDefense\..\Engine" /AI"C:\Homework\capstone-YangYi\TopDefense\..\Middleware\glm\\" /AI"C:\Homework\capstone-YangYi\TopDefense\..\Debug\DebugGUI\\" /AI"C:\Homework\capstone-YangYi\TopDefense\..\Middleware\glew" /AI"C:\Homework\capstone-YangYi\TopDefense\..\Middleware\FreeImage\include" /Zi /nologo /W4 /WX- /Od /D DEBUG_ON /D DEBUG_SHAPE_ON /D WIN32 /D _DEBUG /D _WINDOWS /D _USRDLL /D ENGINE_EXPORTS /D _WINDLL /D _UNICODE /D UNICODE /Gm /EHsc /RTC1 /MDd /GS /fp:precise /Zc:wchar_t /Zc:forScope /Fo"X64\DEBUG\\" /Fd"X64\DEBUG\VC110.PDB" /Gd /TP C:\HOMEWORK\CAPSTONE-YANGYI\ENGINE\CSTOPWATCH.CPP
^C:\HOMEWORK\CAPSTONE-YANGYI\ENGINE\DEBUGTOOLS\DEBUGMENU.CPP
/c /IC:\Homework\BatEngine\Middleware\Kinect\inc /I"C:\Homework\capstone-YangYi\TopDefense\..\Core\include" /I"C:\Homework\capstone-YangYi\TopDefense\..\Middleware\NeumontTools\include" /I"C:\Homework\capstone-YangYi\TopDefense\..\Engine\RenderComponents" /I"C:\Homework\capstone-YangYi\TopDefense\..\Middleware\glew\include" /I"C:\Homework\capstone-YangYi\TopDefense\..\Middleware\Qt\include" /I"C:\Homework\capstone-YangYi\TopDefense\..\Engine\UIData\\" /I"C:\Homework\capstone-YangYi\TopDefense\..\Engine\\" /I"C:\Homework\capstone-YangYi\TopDefense\..\Middleware\glm\\" /I"C:\Homework\capstone-YangYi\TopDefense\..\Debug\\" /I"C:\Homework\capstone-YangYi\TopDefense\..\Middleware\FreeImage\include" /AI"C:\Homework\capstone-YangYi\TopDefense\\" /AI"C:\Homework\capstone-YangYi\TopDefense\..\Engine" /AI"C:\Homework\capstone-YangYi\TopDefense\..\Middleware\glm\\" /AI"C:\Homework\capstone-YangYi\TopDefense\..\Debug\DebugGUI\\" /AI"C:\Homework\capstone-YangYi\TopDefense\..\Middleware\glew" /AI"C:\Homework\capstone-YangYi\TopDefense\..\Middleware\FreeImage\include" /Zi /nologo /W4 /WX- /Od /D DEBUG_ON /D DEBUG_SHAPE_ON /D WIN32 /D _DEBUG /D _WINDOWS /D _USRDLL /D ENGINE_EXPORTS /D _WINDLL /D _UNICODE /D UNICODE /Gm /EHsc /RTC1 /MDd /GS /fp:precise /Zc:wchar_t /Zc:forScope /Fo"X64\DEBUG\\" /Fd"X64\DEBUG\VC110.PDB" /Gd /TP C:\HOMEWORK\CAPSTONE-YANGYI\ENGINE\DEBUGTOOLS\DEBUGMENU.CPP
^C:\HOMEWORK\CAPSTONE-YANGYI\ENGINE\DEBUGTOOLS\DEBUGSHAPESMANAGER.CPP
/c /IC:\Homework\BatEngine\Middleware\Kinect\inc /I"C:\Homework\capstone-YangYi\TopDefense\..\Core\include" /I"C:\Homework\capstone-YangYi\TopDefense\..\Middleware\NeumontTools\include" /I"C:\Homework\capstone-YangYi\TopDefense\..\Engine\RenderComponents" /I"C:\Homework\capstone-YangYi\TopDefense\..\Middleware\glew\include" /I"C:\Homework\capstone-YangYi\TopDefense\..\Middleware\Qt\include" /I"C:\Homework\capstone-YangYi\TopDefense\..\Engine\UIData\\" /I"C:\Homework\capstone-YangYi\TopDefense\..\Engine\\" /I"C:\Homework\capstone-YangYi\TopDefense\..\Middleware\glm\\" /I"C:\Homework\capstone-YangYi\TopDefense\..\Debug\\" /I"C:\Homework\capstone-YangYi\TopDefense\..\Middleware\FreeImage\include" /AI"C:\Homework\capstone-YangYi\TopDefense\\" /AI"C:\Homework\capstone-YangYi\TopDefense\..\Engine" /AI"C:\Homework\capstone-YangYi\TopDefense\..\Middleware\glm\\" /AI"C:\Homework\capstone-YangYi\TopDefense\..\Debug\DebugGUI\\" /AI"C:\Homework\capstone-YangYi\TopDefense\..\Middleware\glew" /AI"C:\Homework\capstone-YangYi\TopDefense\..\Middleware\FreeImage\include" /Zi /nologo /W4 /WX- /Od /D DEBUG_ON /D DEBUG_SHAPE_ON /D WIN32 /D _DEBUG /D _WINDOWS /D _USRDLL /D ENGINE_EXPORTS /D _WINDLL /D _UNICODE /D UNICODE /Gm /EHsc /RTC1 /MDd /GS /fp:precise /Zc:wchar_t /Zc:forScope /Fo"X64\DEBUG\\" /Fd"X64\DEBUG\VC110.PDB" /Gd /TP C:\HOMEWORK\CAPSTONE-YANGYI\ENGINE\DEBUGTOOLS\DEBUGSHAPESMANAGER.CPP
^C:\HOMEWORK\CAPSTONE-YANGYI\ENGINE\DEBUGTOOLS\DEBUGSLIDER.CPP
/c /IC:\Homework\BatEngine\Middleware\Kinect\inc /I"C:\Homework\capstone-YangYi\TopDefense\..\Core\include" /I"C:\Homework\capstone-YangYi\TopDefense\..\Middleware\NeumontTools\include" /I"C:\Homework\capstone-YangYi\TopDefense\..\Engine\RenderComponents" /I"C:\Homework\capstone-YangYi\TopDefense\..\Middleware\glew\include" /I"C:\Homework\capstone-YangYi\TopDefense\..\Middleware\Qt\include" /I"C:\Homework\capstone-YangYi\TopDefense\..\Engine\UIData\\" /I"C:\Homework\capstone-YangYi\TopDefense\..\Engine\\" /I"C:\Homework\capstone-YangYi\TopDefense\..\Middleware\glm\\" /I"C:\Homework\capstone-YangYi\TopDefense\..\Debug\\" /I"C:\Homework\capstone-YangYi\TopDefense\..\Middleware\FreeImage\include" /AI"C:\Homework\capstone-YangYi\TopDefense\\" /AI"C:\Homework\capstone-YangYi\TopDefense\..\Engine" /AI"C:\Homework\capstone-YangYi\TopDefense\..\Middleware\glm\\" /AI"C:\Homework\capstone-YangYi\TopDefense\..\Debug\DebugGUI\\" /AI"C:\Homework\capstone-YangYi\TopDefense\..\Middleware\glew" /AI"C:\Homework\capstone-YangYi\TopDefense\..\Middleware\FreeImage\include" /Zi /nologo /W4 /WX- /Od /D DEBUG_ON /D DEBUG_SHAPE_ON /D WIN32 /D _DEBUG /D _WINDOWS /D _USRDLL /D ENGINE_EXPORTS /D _WINDLL /D _UNICODE /D UNICODE /Gm /EHsc /RTC1 /MDd /GS /fp:precise /Zc:wchar_t /Zc:forScope /Fo"X64\DEBUG\\" /Fd"X64\DEBUG\VC110.PDB" /Gd /TP C:\HOMEWORK\CAPSTONE-YANGYI\ENGINE\DEBUGTOOLS\DEBUGSLIDER.CPP
^C:\HOMEWORK\CAPSTONE-YANGYI\ENGINE\DEBUGTOOLS\DEBUGSLIDER_MOC.CPP
/c /IC:\Homework\BatEngine\Middleware\Kinect\inc /I"C:\Homework\capstone-YangYi\TopDefense\..\Core\include" /I"C:\Homework\capstone-YangYi\TopDefense\..\Middleware\NeumontTools\include" /I"C:\Homework\capstone-YangYi\TopDefense\..\Engine\RenderComponents" /I"C:\Homework\capstone-YangYi\TopDefense\..\Middleware\glew\include" /I"C:\Homework\capstone-YangYi\TopDefense\..\Middleware\Qt\include" /I"C:\Homework\capstone-YangYi\TopDefense\..\Engine\UIData\\" /I"C:\Homework\capstone-YangYi\TopDefense\..\Engine\\" /I"C:\Homework\capstone-YangYi\TopDefense\..\Middleware\glm\\" /I"C:\Homework\capstone-YangYi\TopDefense\..\Debug\\" /I"C:\Homework\capstone-YangYi\TopDefense\..\Middleware\FreeImage\include" /AI"C:\Homework\capstone-YangYi\TopDefense\\" /AI"C:\Homework\capstone-YangYi\TopDefense\..\Engine" /AI"C:\Homework\capstone-YangYi\TopDefense\..\Middleware\glm\\" /AI"C:\Homework\capstone-YangYi\TopDefense\..\Debug\DebugGUI\\" /AI"C:\Homework\capstone-YangYi\TopDefense\..\Middleware\glew" /AI"C:\Homework\capstone-YangYi\TopDefense\..\Middleware\FreeImage\include" /Zi /nologo /W4 /WX- /Od /D DEBUG_ON /D DEBUG_SHAPE_ON /D WIN32 /D _DEBUG /D _WINDOWS /D _USRDLL /D ENGINE_EXPORTS /D _WINDLL /D _UNICODE /D UNICODE /Gm /EHsc /RTC1 /MDd /GS /fp:precise /Zc:wchar_t /Zc:forScope /Fo"X64\DEBUG\\" /Fd"X64\DEBUG\VC110.PDB" /Gd /TP C:\HOMEWORK\CAPSTONE-YANGYI\ENGINE\DEBUGTOOLS\DEBUGSLIDER_MOC.CPP
^C:\HOMEWORK\CAPSTONE-YANGYI\ENGINE\ACTORS\FLAG.CPP
/c /IC:\Homework\BatEngine\Middleware\Kinect\inc /I"C:\Homework\capstone-YangYi\TopDefense\..\Core\include" /I"C:\Homework\capstone-YangYi\TopDefense\..\Middleware\NeumontTools\include" /I"C:\Homework\capstone-YangYi\TopDefense\..\Engine\RenderComponents" /I"C:\Homework\capstone-YangYi\TopDefense\..\Middleware\glew\include" /I"C:\Homework\capstone-YangYi\TopDefense\..\Middleware\Qt\include" /I"C:\Homework\capstone-YangYi\TopDefense\..\Engine\UIData\\" /I"C:\Homework\capstone-YangYi\TopDefense\..\Engine\\" /I"C:\Homework\capstone-YangYi\TopDefense\..\Middleware\glm\\" /I"C:\Homework\capstone-YangYi\TopDefense\..\Debug\\" /I"C:\Homework\capstone-YangYi\TopDefense\..\Middleware\FreeImage\include" /AI"C:\Homework\capstone-YangYi\TopDefense\\" /AI"C:\Homework\capstone-YangYi\TopDefense\..\Engine" /AI"C:\Homework\capstone-YangYi\TopDefense\..\Middleware\glm\\" /AI"C:\Homework\capstone-YangYi\TopDefense\..\Debug\DebugGUI\\" /AI"C:\Homework\capstone-YangYi\TopDefense\..\Middleware\glew" /AI"C:\Homework\capstone-YangYi\TopDefense\..\Middleware\FreeImage\include" /Zi /nologo /W4 /WX- /Od /D DEBUG_ON /D DEBUG_SHAPE_ON /D WIN32 /D _DEBUG /D _WINDOWS /D _USRDLL /D ENGINE_EXPORTS /D _WINDLL /D _UNICODE /D UNICODE /Gm /EHsc /RTC1 /MDd /GS /fp:precise /Zc:wchar_t /Zc:forScope /Fo"X64\DEBUG\\" /Fd"X64\DEBUG\VC110.PDB" /Gd /TP C:\HOMEWORK\CAPSTONE-YANGYI\ENGINE\ACTORS\FLAG.CPP
^C:\HOMEWORK\CAPSTONE-YANGYI\ENGINE\GUI\GLWINDOW.CPP
/c /IC:\Homework\BatEngine\Middleware\Kinect\inc /I"C:\Homework\capstone-YangYi\TopDefense\..\Core\include" /I"C:\Homework\capstone-YangYi\TopDefense\..\Middleware\NeumontTools\include" /I"C:\Homework\capstone-YangYi\TopDefense\..\Engine\RenderComponents" /I"C:\Homework\capstone-YangYi\TopDefense\..\Middleware\glew\include" /I"C:\Homework\capstone-YangYi\TopDefense\..\Middleware\Qt\include" /I"C:\Homework\capstone-YangYi\TopDefense\..\Engine\UIData\\" /I"C:\Homework\capstone-YangYi\TopDefense\..\Engine\\" /I"C:\Homework\capstone-YangYi\TopDefense\..\Middleware\glm\\" /I"C:\Homework\capstone-YangYi\TopDefense\..\Debug\\" /I"C:\Homework\capstone-YangYi\TopDefense\..\Middleware\FreeImage\include" /AI"C:\Homework\capstone-YangYi\TopDefense\\" /AI"C:\Homework\capstone-YangYi\TopDefense\..\Engine" /AI"C:\Homework\capstone-YangYi\TopDefense\..\Middleware\glm\\" /AI"C:\Homework\capstone-YangYi\TopDefense\..\Debug\DebugGUI\\" /AI"C:\Homework\capstone-YangYi\TopDefense\..\Middleware\glew" /AI"C:\Homework\capstone-YangYi\TopDefense\..\Middleware\FreeImage\include" /Zi /nologo /W4 /WX- /Od /D DEBUG_ON /D DEBUG_SHAPE_ON /D WIN32 /D _DEBUG /D _WINDOWS /D _USRDLL /D ENGINE_EXPORTS /D _WINDLL /D _UNICODE /D UNICODE /Gm /EHsc /RTC1 /MDd /GS /fp:precise /Zc:wchar_t /Zc:forScope /Fo"X64\DEBUG\\" /Fd"X64\DEBUG\VC110.PDB" /Gd /TP C:\HOMEWORK\CAPSTONE-YANGYI\ENGINE\GUI\GLWINDOW.CPP
^C:\HOMEWORK\CAPSTONE-YANGYI\ENGINE\GUI\APPWINDOW.CPP
/c /IC:\Homework\BatEngine\Middleware\Kinect\inc /I"C:\Homework\capstone-YangYi\TopDefense\..\Core\include" /I"C:\Homework\capstone-YangYi\TopDefense\..\Middleware\NeumontTools\include" /I"C:\Homework\capstone-YangYi\TopDefense\..\Engine\RenderComponents" /I"C:\Homework\capstone-YangYi\TopDefense\..\Middleware\glew\include" /I"C:\Homework\capstone-YangYi\TopDefense\..\Middleware\Qt\include" /I"C:\Homework\capstone-YangYi\TopDefense\..\Engine\UIData\\" /I"C:\Homework\capstone-YangYi\TopDefense\..\Engine\\" /I"C:\Homework\capstone-YangYi\TopDefense\..\Middleware\glm\\" /I"C:\Homework\capstone-YangYi\TopDefense\..\Debug\\" /I"C:\Homework\capstone-YangYi\TopDefense\..\Middleware\FreeImage\include" /AI"C:\Homework\capstone-YangYi\TopDefense\\" /AI"C:\Homework\capstone-YangYi\TopDefense\..\Engine" /AI"C:\Homework\capstone-YangYi\TopDefense\..\Middleware\glm\\" /AI"C:\Homework\capstone-YangYi\TopDefense\..\Debug\DebugGUI\\" /AI"C:\Homework\capstone-YangYi\TopDefense\..\Middleware\glew" /AI"C:\Homework\capstone-YangYi\TopDefense\..\Middleware\FreeImage\include" /Zi /nologo /W4 /WX- /Od /D DEBUG_ON /D DEBUG_SHAPE_ON /D WIN32 /D _DEBUG /D _WINDOWS /D _USRDLL /D ENGINE_EXPORTS /D _WINDLL /D _UNICODE /D UNICODE /Gm /EHsc /RTC1 /MDd /GS /fp:precise /Zc:wchar_t /Zc:forScope /Fo"X64\DEBUG\\" /Fd"X64\DEBUG\VC110.PDB" /Gd /TP C:\HOMEWORK\CAPSTONE-YANGYI\ENGINE\GUI\APPWINDOW.CPP
^C:\HOMEWORK\CAPSTONE-YANGYI\ENGINE\DLLMAIN.CPP
/c /IC:\Homework\BatEngine\Middleware\Kinect\inc /I"C:\Homework\capstone-YangYi\TopDefense\..\Core\include" /I"C:\Homework\capstone-YangYi\TopDefense\..\Middleware\NeumontTools\include" /I"C:\Homework\capstone-YangYi\TopDefense\..\Engine\RenderComponents" /I"C:\Homework\capstone-YangYi\TopDefense\..\Middleware\glew\include" /I"C:\Homework\capstone-YangYi\TopDefense\..\Middleware\Qt\include" /I"C:\Homework\capstone-YangYi\TopDefense\..\Engine\UIData\\" /I"C:\Homework\capstone-YangYi\TopDefense\..\Engine\\" /I"C:\Homework\capstone-YangYi\TopDefense\..\Middleware\glm\\" /I"C:\Homework\capstone-YangYi\TopDefense\..\Debug\\" /I"C:\Homework\capstone-YangYi\TopDefense\..\Middleware\FreeImage\include" /AI"C:\Homework\capstone-YangYi\TopDefense\\" /AI"C:\Homework\capstone-YangYi\TopDefense\..\Engine" /AI"C:\Homework\capstone-YangYi\TopDefense\..\Middleware\glm\\" /AI"C:\Homework\capstone-YangYi\TopDefense\..\Debug\DebugGUI\\" /AI"C:\Homework\capstone-YangYi\TopDefense\..\Middleware\glew" /AI"C:\Homework\capstone-YangYi\TopDefense\..\Middleware\FreeImage\include" /Zi /nologo /W4 /WX- /Od /D DEBUG_ON /D DEBUG_SHAPE_ON /D WIN32 /D _DEBUG /D _WINDOWS /D _USRDLL /D ENGINE_EXPORTS /D _WINDLL /D _UNICODE /D UNICODE /Gm /EHsc /RTC1 /MDd /GS /fp:precise /Zc:wchar_t /Zc:forScope /Fo"X64\DEBUG\\" /Fd"X64\DEBUG\VC110.PDB" /Gd /TP C:\HOMEWORK\CAPSTONE-YANGYI\ENGINE\DLLMAIN.CPP
^C:\HOMEWORK\CAPSTONE-YANGYI\ENGINE\GUI\GLWINDOW_MOC.CPP
/c /IC:\Homework\BatEngine\Middleware\Kinect\inc /I"C:\Homework\capstone-YangYi\TopDefense\..\Core\include" /I"C:\Homework\capstone-YangYi\TopDefense\..\Middleware\NeumontTools\include" /I"C:\Homework\capstone-YangYi\TopDefense\..\Engine\RenderComponents" /I"C:\Homework\capstone-YangYi\TopDefense\..\Middleware\glew\include" /I"C:\Homework\capstone-YangYi\TopDefense\..\Middleware\Qt\include" /I"C:\Homework\capstone-YangYi\TopDefense\..\Engine\UIData\\" /I"C:\Homework\capstone-YangYi\TopDefense\..\Engine\\" /I"C:\Homework\capstone-YangYi\TopDefense\..\Middleware\glm\\" /I"C:\Homework\capstone-YangYi\TopDefense\..\Debug\\" /I"C:\Homework\capstone-YangYi\TopDefense\..\Middleware\FreeImage\include" /AI"C:\Homework\capstone-YangYi\TopDefense\\" /AI"C:\Homework\capstone-YangYi\TopDefense\..\Engine" /AI"C:\Homework\capstone-YangYi\TopDefense\..\Middleware\glm\\" /AI"C:\Homework\capstone-YangYi\TopDefense\..\Debug\DebugGUI\\" /AI"C:\Homework\capstone-YangYi\TopDefense\..\Middleware\glew" /AI"C:\Homework\capstone-YangYi\TopDefense\..\Middleware\FreeImage\include" /Zi /nologo /W4 /WX- /Od /D DEBUG_ON /D DEBUG_SHAPE_ON /D WIN32 /D _DEBUG /D _WINDOWS /D _USRDLL /D ENGINE_EXPORTS /D _WINDLL /D _UNICODE /D UNICODE /Gm /EHsc /RTC1 /MDd /GS /fp:precise /Zc:wchar_t /Zc:forScope /Fo"X64\DEBUG\\" /Fd"X64\DEBUG\VC110.PDB" /Gd /TP C:\HOMEWORK\CAPSTONE-YANGYI\ENGINE\GUI\GLWINDOW_MOC.CPP
^C:\HOMEWORK\CAPSTONE-YANGYI\ENGINE\ACTORS\COMPONENTS\INPUTCOMPONENT.CPP
/c /IC:\Homework\BatEngine\Middleware\Kinect\inc /I"C:\Homework\capstone-YangYi\TopDefense\..\Core\include" /I"C:\Homework\capstone-YangYi\TopDefense\..\Middleware\NeumontTools\include" /I"C:\Homework\capstone-YangYi\TopDefense\..\Engine\RenderComponents" /I"C:\Homework\capstone-YangYi\TopDefense\..\Middleware\glew\include" /I"C:\Homework\capstone-YangYi\TopDefense\..\Middleware\Qt\include" /I"C:\Homework\capstone-YangYi\TopDefense\..\Engine\UIData\\" /I"C:\Homework\capstone-YangYi\TopDefense\..\Engine\\" /I"C:\Homework\capstone-YangYi\TopDefense\..\Middleware\glm\\" /I"C:\Homework\capstone-YangYi\TopDefense\..\Debug\\" /I"C:\Homework\capstone-YangYi\TopDefense\..\Middleware\FreeImage\include" /AI"C:\Homework\capstone-YangYi\TopDefense\\" /AI"C:\Homework\capstone-YangYi\TopDefense\..\Engine" /AI"C:\Homework\capstone-YangYi\TopDefense\..\Middleware\glm\\" /AI"C:\Homework\capstone-YangYi\TopDefense\..\Debug\DebugGUI\\" /AI"C:\Homework\capstone-YangYi\TopDefense\..\Middleware\glew" /AI"C:\Homework\capstone-YangYi\TopDefense\..\Middleware\FreeImage\include" /Zi /nologo /W4 /WX- /Od /D DEBUG_ON /D DEBUG_SHAPE_ON /D WIN32 /D _DEBUG /D _WINDOWS /D _USRDLL /D ENGINE_EXPORTS /D _WINDLL /D _UNICODE /D UNICODE /Gm /EHsc /RTC1 /MDd /GS /fp:precise /Zc:wchar_t /Zc:forScope /Fo"X64\DEBUG\\" /Fd"X64\DEBUG\VC110.PDB" /Gd /TP C:\HOMEWORK\CAPSTONE-YANGYI\ENGINE\ACTORS\COMPONENTS\INPUTCOMPONENT.CPP
^C:\HOMEWORK\CAPSTONE-YANGYI\ENGINE\KINECTMODULE\KINECTBODYINDEX.CPP
/c /IC:\Homework\BatEngine\Middleware\Kinect\inc /I"C:\Homework\capstone-YangYi\TopDefense\..\Core\include" /I"C:\Homework\capstone-YangYi\TopDefense\..\Middleware\NeumontTools\include" /I"C:\Homework\capstone-YangYi\TopDefense\..\Engine\RenderComponents" /I"C:\Homework\capstone-YangYi\TopDefense\..\Middleware\glew\include" /I"C:\Homework\capstone-YangYi\TopDefense\..\Middleware\Qt\include" /I"C:\Homework\capstone-YangYi\TopDefense\..\Engine\UIData\\" /I"C:\Homework\capstone-YangYi\TopDefense\..\Engine\\" /I"C:\Homework\capstone-YangYi\TopDefense\..\Middleware\glm\\" /I"C:\Homework\capstone-YangYi\TopDefense\..\Debug\\" /I"C:\Homework\capstone-YangYi\TopDefense\..\Middleware\FreeImage\include" /AI"C:\Homework\capstone-YangYi\TopDefense\\" /AI"C:\Homework\capstone-YangYi\TopDefense\..\Engine" /AI"C:\Homework\capstone-YangYi\TopDefense\..\Middleware\glm\\" /AI"C:\Homework\capstone-YangYi\TopDefense\..\Debug\DebugGUI\\" /AI"C:\Homework\capstone-YangYi\TopDefense\..\Middleware\glew" /AI"C:\Homework\capstone-YangYi\TopDefense\..\Middleware\FreeImage\include" /Zi /nologo /W4 /WX- /Od /D DEBUG_ON /D DEBUG_SHAPE_ON /D WIN32 /D _DEBUG /D _WINDOWS /D _USRDLL /D ENGINE_EXPORTS /D _WINDLL /D _UNICODE /D UNICODE /Gm /EHsc /RTC1 /MDd /GS /fp:precise /Zc:wchar_t /Zc:forScope /Fo"X64\DEBUG\\" /Fd"X64\DEBUG\VC110.PDB" /Gd /TP C:\HOMEWORK\CAPSTONE-YANGYI\ENGINE\KINECTMODULE\KINECTBODYINDEX.CPP
^C:\HOMEWORK\CAPSTONE-YANGYI\ENGINE\KINECTMODULE\KINECTBODYFRAME.CPP
/c /IC:\Homework\BatEngine\Middleware\Kinect\inc /I"C:\Homework\capstone-YangYi\TopDefense\..\Core\include" /I"C:\Homework\capstone-YangYi\TopDefense\..\Middleware\NeumontTools\include" /I"C:\Homework\capstone-YangYi\TopDefense\..\Engine\RenderComponents" /I"C:\Homework\capstone-YangYi\TopDefense\..\Middleware\glew\include" /I"C:\Homework\capstone-YangYi\TopDefense\..\Middleware\Qt\include" /I"C:\Homework\capstone-YangYi\TopDefense\..\Engine\UIData\\" /I"C:\Homework\capstone-YangYi\TopDefense\..\Engine\\" /I"C:\Homework\capstone-YangYi\TopDefense\..\Middleware\glm\\" /I"C:\Homework\capstone-YangYi\TopDefense\..\Debug\\" /I"C:\Homework\capstone-YangYi\TopDefense\..\Middleware\FreeImage\include" /AI"C:\Homework\capstone-YangYi\TopDefense\\" /AI"C:\Homework\capstone-YangYi\TopDefense\..\Engine" /AI"C:\Homework\capstone-YangYi\TopDefense\..\Middleware\glm\\" /AI"C:\Homework\capstone-YangYi\TopDefense\..\Debug\DebugGUI\\" /AI"C:\Homework\capstone-YangYi\TopDefense\..\Middleware\glew" /AI"C:\Homework\capstone-YangYi\TopDefense\..\Middleware\FreeImage\include" /Zi /nologo /W4 /WX- /Od /D DEBUG_ON /D DEBUG_SHAPE_ON /D WIN32 /D _DEBUG /D _WINDOWS /D _USRDLL /D ENGINE_EXPORTS /D _WINDLL /D _UNICODE /D UNICODE /Gm /EHsc /RTC1 /MDd /GS /fp:precise /Zc:wchar_t /Zc:forScope /Fo"X64\DEBUG\\" /Fd"X64\DEBUG\VC110.PDB" /Gd /TP C:\HOMEWORK\CAPSTONE-YANGYI\ENGINE\KINECTMODULE\KINECTBODYFRAME.CPP
^C:\HOMEWORK\CAPSTONE-YANGYI\ENGINE\KINECTMODULE\KINECTDEPTH.CPP
/c /IC:\Homework\BatEngine\Middleware\Kinect\inc /I"C:\Homework\capstone-YangYi\TopDefense\..\Core\include" /I"C:\Homework\capstone-YangYi\TopDefense\..\Middleware\NeumontTools\include" /I"C:\Homework\capstone-YangYi\TopDefense\..\Engine\RenderComponents" /I"C:\Homework\capstone-YangYi\TopDefense\..\Middleware\glew\include" /I"C:\Homework\capstone-YangYi\TopDefense\..\Middleware\Qt\include" /I"C:\Homework\capstone-YangYi\TopDefense\..\Engine\UIData\\" /I"C:\Homework\capstone-YangYi\TopDefense\..\Engine\\" /I"C:\Homework\capstone-YangYi\TopDefense\..\Middleware\glm\\" /I"C:\Homework\capstone-YangYi\TopDefense\..\Debug\\" /I"C:\Homework\capstone-YangYi\TopDefense\..\Middleware\FreeImage\include" /AI"C:\Homework\capstone-YangYi\TopDefense\\" /AI"C:\Homework\capstone-YangYi\TopDefense\..\Engine" /AI"C:\Homework\capstone-YangYi\TopDefense\..\Middleware\glm\\" /AI"C:\Homework\capstone-YangYi\TopDefense\..\Debug\DebugGUI\\" /AI"C:\Homework\capstone-YangYi\TopDefense\..\Middleware\glew" /AI"C:\Homework\capstone-YangYi\TopDefense\..\Middleware\FreeImage\include" /Zi /nologo /W4 /WX- /Od /D DEBUG_ON /D DEBUG_SHAPE_ON /D WIN32 /D _DEBUG /D _WINDOWS /D _USRDLL /D ENGINE_EXPORTS /D _WINDLL /D _UNICODE /D UNICODE /Gm /EHsc /RTC1 /MDd /GS /fp:precise /Zc:wchar_t /Zc:forScope /Fo"X64\DEBUG\\" /Fd"X64\DEBUG\VC110.PDB" /Gd /TP C:\HOMEWORK\CAPSTONE-YANGYI\ENGINE\KINECTMODULE\KINECTDEPTH.CPP
^C:\HOMEWORK\CAPSTONE-YANGYI\ENGINE\KINECTMODULE\KINECTCOLOR.CPP
/c /IC:\Homework\BatEngine\Middleware\Kinect\inc /I"C:\Homework\capstone-YangYi\TopDefense\..\Core\include" /I"C:\Homework\capstone-YangYi\TopDefense\..\Middleware\NeumontTools\include" /I"C:\Homework\capstone-YangYi\TopDefense\..\Engine\RenderComponents" /I"C:\Homework\capstone-YangYi\TopDefense\..\Middleware\glew\include" /I"C:\Homework\capstone-YangYi\TopDefense\..\Middleware\Qt\include" /I"C:\Homework\capstone-YangYi\TopDefense\..\Engine\UIData\\" /I"C:\Homework\capstone-YangYi\TopDefense\..\Engine\\" /I"C:\Homework\capstone-YangYi\TopDefense\..\Middleware\glm\\" /I"C:\Homework\capstone-YangYi\TopDefense\..\Debug\\" /I"C:\Homework\capstone-YangYi\TopDefense\..\Middleware\FreeImage\include" /AI"C:\Homework\capstone-YangYi\TopDefense\\" /AI"C:\Homework\capstone-YangYi\TopDefense\..\Engine" /AI"C:\Homework\capstone-YangYi\TopDefense\..\Middleware\glm\\" /AI"C:\Homework\capstone-YangYi\TopDefense\..\Debug\DebugGUI\\" /AI"C:\Homework\capstone-YangYi\TopDefense\..\Middleware\glew" /AI"C:\Homework\capstone-YangYi\TopDefense\..\Middleware\FreeImage\include" /Zi /nologo /W4 /WX- /Od /D DEBUG_ON /D DEBUG_SHAPE_ON /D WIN32 /D _DEBUG /D _WINDOWS /D _USRDLL /D ENGINE_EXPORTS /D _WINDLL /D _UNICODE /D UNICODE /Gm /EHsc /RTC1 /MDd /GS /fp:precise /Zc:wchar_t /Zc:forScope /Fo"X64\DEBUG\\" /Fd"X64\DEBUG\VC110.PDB" /Gd /TP C:\HOMEWORK\CAPSTONE-YANGYI\ENGINE\KINECTMODULE\KINECTCOLOR.CPP
^C:\HOMEWORK\CAPSTONE-YANGYI\ENGINE\KINECTMODULE\IMAGERENDERER.CPP
/c /IC:\Homework\BatEngine\Middleware\Kinect\inc /I"C:\Homework\capstone-YangYi\TopDefense\..\Core\include" /I"C:\Homework\capstone-YangYi\TopDefense\..\Middleware\NeumontTools\include" /I"C:\Homework\capstone-YangYi\TopDefense\..\Engine\RenderComponents" /I"C:\Homework\capstone-YangYi\TopDefense\..\Middleware\glew\include" /I"C:\Homework\capstone-YangYi\TopDefense\..\Middleware\Qt\include" /I"C:\Homework\capstone-YangYi\TopDefense\..\Engine\UIData\\" /I"C:\Homework\capstone-YangYi\TopDefense\..\Engine\\" /I"C:\Homework\capstone-YangYi\TopDefense\..\Middleware\glm\\" /I"C:\Homework\capstone-YangYi\TopDefense\..\Debug\\" /I"C:\Homework\capstone-YangYi\TopDefense\..\Middleware\FreeImage\include" /AI"C:\Homework\capstone-YangYi\TopDefense\\" /AI"C:\Homework\capstone-YangYi\TopDefense\..\Engine" /AI"C:\Homework\capstone-YangYi\TopDefense\..\Middleware\glm\\" /AI"C:\Homework\capstone-YangYi\TopDefense\..\Debug\DebugGUI\\" /AI"C:\Homework\capstone-YangYi\TopDefense\..\Middleware\glew" /AI"C:\Homework\capstone-YangYi\TopDefense\..\Middleware\FreeImage\include" /Zi /nologo /W4 /WX- /Od /D DEBUG_ON /D DEBUG_SHAPE_ON /D WIN32 /D _DEBUG /D _WINDOWS /D _USRDLL /D ENGINE_EXPORTS /D _WINDLL /D _UNICODE /D UNICODE /Gm /EHsc /RTC1 /MDd /GS /fp:precise /Zc:wchar_t /Zc:forScope /Fo"X64\DEBUG\\" /Fd"X64\DEBUG\VC110.PDB" /Gd /TP C:\HOMEWORK\CAPSTONE-YANGYI\ENGINE\KINECTMODULE\IMAGERENDERER.CPP
^C:\HOMEWORK\CAPSTONE-YANGYI\ENGINE\KINECTMODULE\KINECTSOURCES.CPP
/c /IC:\Homework\BatEngine\Middleware\Kinect\inc /I"C:\Homework\capstone-YangYi\TopDefense\..\Core\include" /I"C:\Homework\capstone-YangYi\TopDefense\..\Middleware\NeumontTools\include" /I"C:\Homework\capstone-YangYi\TopDefense\..\Engine\RenderComponents" /I"C:\Homework\capstone-YangYi\TopDefense\..\Middleware\glew\include" /I"C:\Homework\capstone-YangYi\TopDefense\..\Middleware\Qt\include" /I"C:\Homework\capstone-YangYi\TopDefense\..\Engine\UIData\\" /I"C:\Homework\capstone-YangYi\TopDefense\..\Engine\\" /I"C:\Homework\capstone-YangYi\TopDefense\..\Middleware\glm\\" /I"C:\Homework\capstone-YangYi\TopDefense\..\Debug\\" /I"C:\Homework\capstone-YangYi\TopDefense\..\Middleware\FreeImage\include" /AI"C:\Homework\capstone-YangYi\TopDefense\\" /AI"C:\Homework\capstone-YangYi\TopDefense\..\Engine" /AI"C:\Homework\capstone-YangYi\TopDefense\..\Middleware\glm\\" /AI"C:\Homework\capstone-YangYi\TopDefense\..\Debug\DebugGUI\\" /AI"C:\Homework\capstone-YangYi\TopDefense\..\Middleware\glew" /AI"C:\Homework\capstone-YangYi\TopDefense\..\Middleware\FreeImage\include" /Zi /nologo /W4 /WX- /Od /D DEBUG_ON /D DEBUG_SHAPE_ON /D WIN32 /D _DEBUG /D _WINDOWS /D _USRDLL /D ENGINE_EXPORTS /D _WINDLL /D _UNICODE /D UNICODE /Gm /EHsc /RTC1 /MDd /GS /fp:precise /Zc:wchar_t /Zc:forScope /Fo"X64\DEBUG\\" /Fd"X64\DEBUG\VC110.PDB" /Gd /TP C:\HOMEWORK\CAPSTONE-YANGYI\ENGINE\KINECTMODULE\KINECTSOURCES.CPP
^C:\HOMEWORK\CAPSTONE-YANGYI\ENGINE\KINECTMODULE\KINECTSENSOR.CPP
/c /IC:\Homework\BatEngine\Middleware\Kinect\inc /I"C:\Homework\capstone-YangYi\TopDefense\..\Core\include" /I"C:\Homework\capstone-YangYi\TopDefense\..\Middleware\NeumontTools\include" /I"C:\Homework\capstone-YangYi\TopDefense\..\Engine\RenderComponents" /I"C:\Homework\capstone-YangYi\TopDefense\..\Middleware\glew\include" /I"C:\Homework\capstone-YangYi\TopDefense\..\Middleware\Qt\include" /I"C:\Homework\capstone-YangYi\TopDefense\..\Engine\UIData\\" /I"C:\Homework\capstone-YangYi\TopDefense\..\Engine\\" /I"C:\Homework\capstone-YangYi\TopDefense\..\Middleware\glm\\" /I"C:\Homework\capstone-YangYi\TopDefense\..\Debug\\" /I"C:\Homework\capstone-YangYi\TopDefense\..\Middleware\FreeImage\include" /AI"C:\Homework\capstone-YangYi\TopDefense\\" /AI"C:\Homework\capstone-YangYi\TopDefense\..\Engine" /AI"C:\Homework\capstone-YangYi\TopDefense\..\Middleware\glm\\" /AI"C:\Homework\capstone-YangYi\TopDefense\..\Debug\DebugGUI\\" /AI"C:\Homework\capstone-YangYi\TopDefense\..\Middleware\glew" /AI"C:\Homework\capstone-YangYi\TopDefense\..\Middleware\FreeImage\include" /Zi /nologo /W4 /WX- /Od /D DEBUG_ON /D DEBUG_SHAPE_ON /D WIN32 /D _DEBUG /D _WINDOWS /D _USRDLL /D ENGINE_EXPORTS /D _WINDLL /D _UNICODE /D UNICODE /Gm /EHsc /RTC1 /MDd /GS /fp:precise /Zc:wchar_t /Zc:forScope /Fo"X64\DEBUG\\" /Fd"X64\DEBUG\VC110.PDB" /Gd /TP C:\HOMEWORK\CAPSTONE-YANGYI\ENGINE\KINECTMODULE\KINECTSENSOR.CPP
^C:\HOMEWORK\CAPSTONE-YANGYI\ENGINE\KINECTMODULE\KINECTROOMCOLLISION.CPP
/c /IC:\Homework\BatEngine\Middleware\Kinect\inc /I"C:\Homework\capstone-YangYi\TopDefense\..\Core\include" /I"C:\Homework\capstone-YangYi\TopDefense\..\Middleware\NeumontTools\include" /I"C:\Homework\capstone-YangYi\TopDefense\..\Engine\RenderComponents" /I"C:\Homework\capstone-YangYi\TopDefense\..\Middleware\glew\include" /I"C:\Homework\capstone-YangYi\TopDefense\..\Middleware\Qt\include" /I"C:\Homework\capstone-YangYi\TopDefense\..\Engine\UIData\\" /I"C:\Homework\capstone-YangYi\TopDefense\..\Engine\\" /I"C:\Homework\capstone-YangYi\TopDefense\..\Middleware\glm\\" /I"C:\Homework\capstone-YangYi\TopDefense\..\Debug\\" /I"C:\Homework\capstone-YangYi\TopDefense\..\Middleware\FreeImage\include" /AI"C:\Homework\capstone-YangYi\TopDefense\\" /AI"C:\Homework\capstone-YangYi\TopDefense\..\Engine" /AI"C:\Homework\capstone-YangYi\TopDefense\..\Middleware\glm\\" /AI"C:\Homework\capstone-YangYi\TopDefense\..\Debug\DebugGUI\\" /AI"C:\Homework\capstone-YangYi\TopDefense\..\Middleware\glew" /AI"C:\Homework\capstone-YangYi\TopDefense\..\Middleware\FreeImage\include" /Zi /nologo /W4 /WX- /Od /D DEBUG_ON /D DEBUG_SHAPE_ON /D WIN32 /D _DEBUG /D _WINDOWS /D _USRDLL /D ENGINE_EXPORTS /D _WINDLL /D _UNICODE /D UNICODE /Gm /EHsc /RTC1 /MDd /GS /fp:precise /Zc:wchar_t /Zc:forScope /Fo"X64\DEBUG\\" /Fd"X64\DEBUG\VC110.PDB" /Gd /TP C:\HOMEWORK\CAPSTONE-YANGYI\ENGINE\KINECTMODULE\KINECTROOMCOLLISION.CPP
^C:\HOMEWORK\CAPSTONE-YANGYI\ENGINE\OBJLOADER\OBJLOADER.CPP
/c /IC:\Homework\BatEngine\Middleware\Kinect\inc /I"C:\Homework\capstone-YangYi\TopDefense\..\Core\include" /I"C:\Homework\capstone-YangYi\TopDefense\..\Middleware\NeumontTools\include" /I"C:\Homework\capstone-YangYi\TopDefense\..\Engine\RenderComponents" /I"C:\Homework\capstone-YangYi\TopDefense\..\Middleware\glew\include" /I"C:\Homework\capstone-YangYi\TopDefense\..\Middleware\Qt\include" /I"C:\Homework\capstone-YangYi\TopDefense\..\Engine\UIData\\" /I"C:\Homework\capstone-YangYi\TopDefense\..\Engine\\" /I"C:\Homework\capstone-YangYi\TopDefense\..\Middleware\glm\\" /I"C:\Homework\capstone-YangYi\TopDefense\..\Debug\\" /I"C:\Homework\capstone-YangYi\TopDefense\..\Middleware\FreeImage\include" /AI"C:\Homework\capstone-YangYi\TopDefense\\" /AI"C:\Homework\capstone-YangYi\TopDefense\..\Engine" /AI"C:\Homework\capstone-YangYi\TopDefense\..\Middleware\glm\\" /AI"C:\Homework\capstone-YangYi\TopDefense\..\Debug\DebugGUI\\" /AI"C:\Homework\capstone-YangYi\TopDefense\..\Middleware\glew" /AI"C:\Homework\capstone-YangYi\TopDefense\..\Middleware\FreeImage\include" /Zi /nologo /W4 /WX- /Od /D DEBUG_ON /D DEBUG_SHAPE_ON /D WIN32 /D _DEBUG /D _WINDOWS /D _USRDLL /D ENGINE_EXPORTS /D _WINDLL /D _UNICODE /D UNICODE /Gm /EHsc /RTC1 /MDd /GS /fp:precise /Zc:wchar_t /Zc:forScope /Fo"X64\DEBUG\\" /Fd"X64\DEBUG\VC110.PDB" /Gd /TP C:\HOMEWORK\CAPSTONE-YANGYI\ENGINE\OBJLOADER\OBJLOADER.CPP
^C:\HOMEWORK\CAPSTONE-YANGYI\ENGINE\PHYSICS\PXPHYSICSWORLD.CPP
/c /IC:\Homework\BatEngine\Middleware\Kinect\inc /I"C:\Homework\capstone-YangYi\TopDefense\..\Core\include" /I"C:\Homework\capstone-YangYi\TopDefense\..\Middleware\NeumontTools\include" /I"C:\Homework\capstone-YangYi\TopDefense\..\Engine\RenderComponents" /I"C:\Homework\capstone-YangYi\TopDefense\..\Middleware\glew\include" /I"C:\Homework\capstone-YangYi\TopDefense\..\Middleware\Qt\include" /I"C:\Homework\capstone-YangYi\TopDefense\..\Engine\UIData\\" /I"C:\Homework\capstone-YangYi\TopDefense\..\Engine\\" /I"C:\Homework\capstone-YangYi\TopDefense\..\Middleware\glm\\" /I"C:\Homework\capstone-YangYi\TopDefense\..\Debug\\" /I"C:\Homework\capstone-YangYi\TopDefense\..\Middleware\FreeImage\include" /AI"C:\Homework\capstone-YangYi\TopDefense\\" /AI"C:\Homework\capstone-YangYi\TopDefense\..\Engine" /AI"C:\Homework\capstone-YangYi\TopDefense\..\Middleware\glm\\" /AI"C:\Homework\capstone-YangYi\TopDefense\..\Debug\DebugGUI\\" /AI"C:\Homework\capstone-YangYi\TopDefense\..\Middleware\glew" /AI"C:\Homework\capstone-YangYi\TopDefense\..\Middleware\FreeImage\include" /Zi /nologo /W4 /WX- /Od /D DEBUG_ON /D DEBUG_SHAPE_ON /D WIN32 /D _DEBUG /D _WINDOWS /D _USRDLL /D ENGINE_EXPORTS /D _WINDLL /D _UNICODE /D UNICODE /Gm /EHsc /RTC1 /MDd /GS /fp:precise /Zc:wchar_t /Zc:forScope /Fo"X64\DEBUG\\" /Fd"X64\DEBUG\VC110.PDB" /Gd /TP C:\HOMEWORK\CAPSTONE-YANGYI\ENGINE\PHYSICS\PXPHYSICSWORLD.CPP
^C:\HOMEWORK\CAPSTONE-YANGYI\ENGINE\PLAYER\PLAYERSTATE.CPP
/c /IC:\Homework\BatEngine\Middleware\Kinect\inc /I"C:\Homework\capstone-YangYi\TopDefense\..\Core\include" /I"C:\Homework\capstone-YangYi\TopDefense\..\Middleware\NeumontTools\include" /I"C:\Homework\capstone-YangYi\TopDefense\..\Engine\RenderComponents" /I"C:\Homework\capstone-YangYi\TopDefense\..\Middleware\glew\include" /I"C:\Homework\capstone-YangYi\TopDefense\..\Middleware\Qt\include" /I"C:\Homework\capstone-YangYi\TopDefense\..\Engine\UIData\\" /I"C:\Homework\capstone-YangYi\TopDefense\..\Engine\\" /I"C:\Homework\capstone-YangYi\TopDefense\..\Middleware\glm\\" /I"C:\Homework\capstone-YangYi\TopDefense\..\Debug\\" /I"C:\Homework\capstone-YangYi\TopDefense\..\Middleware\FreeImage\include" /AI"C:\Homework\capstone-YangYi\TopDefense\\" /AI"C:\Homework\capstone-YangYi\TopDefense\..\Engine" /AI"C:\Homework\capstone-YangYi\TopDefense\..\Middleware\glm\\" /AI"C:\Homework\capstone-YangYi\TopDefense\..\Debug\DebugGUI\\" /AI"C:\Homework\capstone-YangYi\TopDefense\..\Middleware\glew" /AI"C:\Homework\capstone-YangYi\TopDefense\..\Middleware\FreeImage\include" /Zi /nologo /W4 /WX- /Od /D DEBUG_ON /D DEBUG_SHAPE_ON /D WIN32 /D _DEBUG /D _WINDOWS /D _USRDLL /D ENGINE_EXPORTS /D _WINDLL /D _UNICODE /D UNICODE /Gm /EHsc /RTC1 /MDd /GS /fp:precise /Zc:wchar_t /Zc:forScope /Fo"X64\DEBUG\\" /Fd"X64\DEBUG\VC110.PDB" /Gd /TP C:\HOMEWORK\CAPSTONE-YANGYI\ENGINE\PLAYER\PLAYERSTATE.CPP
^C:\HOMEWORK\CAPSTONE-YANGYI\ENGINE\PLAYER\PLAYER.CPP
/c /IC:\Homework\BatEngine\Middleware\Kinect\inc /I"C:\Homework\capstone-YangYi\TopDefense\..\Core\include" /I"C:\Homework\capstone-YangYi\TopDefense\..\Middleware\NeumontTools\include" /I"C:\Homework\capstone-YangYi\TopDefense\..\Engine\RenderComponents" /I"C:\Homework\capstone-YangYi\TopDefense\..\Middleware\glew\include" /I"C:\Homework\capstone-YangYi\TopDefense\..\Middleware\Qt\include" /I"C:\Homework\capstone-YangYi\TopDefense\..\Engine\UIData\\" /I"C:\Homework\capstone-YangYi\TopDefense\..\Engine\\" /I"C:\Homework\capstone-YangYi\TopDefense\..\Middleware\glm\\" /I"C:\Homework\capstone-YangYi\TopDefense\..\Debug\\" /I"C:\Homework\capstone-YangYi\TopDefense\..\Middleware\FreeImage\include" /AI"C:\Homework\capstone-YangYi\TopDefense\\" /AI"C:\Homework\capstone-YangYi\TopDefense\..\Engine" /AI"C:\Homework\capstone-YangYi\TopDefense\..\Middleware\glm\\" /AI"C:\Homework\capstone-YangYi\TopDefense\..\Debug\DebugGUI\\" /AI"C:\Homework\capstone-YangYi\TopDefense\..\Middleware\glew" /AI"C:\Homework\capstone-YangYi\TopDefense\..\Middleware\FreeImage\include" /Zi /nologo /W4 /WX- /Od /D DEBUG_ON /D DEBUG_SHAPE_ON /D WIN32 /D _DEBUG /D _WINDOWS /D _USRDLL /D ENGINE_EXPORTS /D _WINDLL /D _UNICODE /D UNICODE /Gm /EHsc /RTC1 /MDd /GS /fp:precise /Zc:wchar_t /Zc:forScope /Fo"X64\DEBUG\\" /Fd"X64\DEBUG\VC110.PDB" /Gd /TP C:\HOMEWORK\CAPSTONE-YANGYI\ENGINE\PLAYER\PLAYER.CPP
^C:\HOMEWORK\CAPSTONE-YANGYI\ENGINE\PROFILER.CPP
/c /IC:\Homework\BatEngine\Middleware\Kinect\inc /I"C:\Homework\capstone-YangYi\TopDefense\..\Core\include" /I"C:\Homework\capstone-YangYi\TopDefense\..\Middleware\NeumontTools\include" /I"C:\Homework\capstone-YangYi\TopDefense\..\Engine\RenderComponents" /I"C:\Homework\capstone-YangYi\TopDefense\..\Middleware\glew\include" /I"C:\Homework\capstone-YangYi\TopDefense\..\Middleware\Qt\include" /I"C:\Homework\capstone-YangYi\TopDefense\..\Engine\UIData\\" /I"C:\Homework\capstone-YangYi\TopDefense\..\Engine\\" /I"C:\Homework\capstone-YangYi\TopDefense\..\Middleware\glm\\" /I"C:\Homework\capstone-YangYi\TopDefense\..\Debug\\" /I"C:\Homework\capstone-YangYi\TopDefense\..\Middleware\FreeImage\include" /AI"C:\Homework\capstone-YangYi\TopDefense\\" /AI"C:\Homework\capstone-YangYi\TopDefense\..\Engine" /AI"C:\Homework\capstone-YangYi\TopDefense\..\Middleware\glm\\" /AI"C:\Homework\capstone-YangYi\TopDefense\..\Debug\DebugGUI\\" /AI"C:\Homework\capstone-YangYi\TopDefense\..\Middleware\glew" /AI"C:\Homework\capstone-YangYi\TopDefense\..\Middleware\FreeImage\include" /Zi /nologo /W4 /WX- /Od /D DEBUG_ON /D DEBUG_SHAPE_ON /D WIN32 /D _DEBUG /D _WINDOWS /D _USRDLL /D ENGINE_EXPORTS /D _WINDLL /D _UNICODE /D UNICODE /Gm /EHsc /RTC1 /MDd /GS /fp:precise /Zc:wchar_t /Zc:forScope /Fo"X64\DEBUG\\" /Fd"X64\DEBUG\VC110.PDB" /Gd /TP C:\HOMEWORK\CAPSTONE-YANGYI\ENGINE\PROFILER.CPP
^C:\HOMEWORK\CAPSTONE-YANGYI\ENGINE\ACTORS\COMPONENTS\MESHCOMPONENTS\MESHRENDERER.CPP
/c /IC:\Homework\BatEngine\Middleware\Kinect\inc /I"C:\Homework\capstone-YangYi\TopDefense\..\Core\include" /I"C:\Homework\capstone-YangYi\TopDefense\..\Middleware\NeumontTools\include" /I"C:\Homework\capstone-YangYi\TopDefense\..\Engine\RenderComponents" /I"C:\Homework\capstone-YangYi\TopDefense\..\Middleware\glew\include" /I"C:\Homework\capstone-YangYi\TopDefense\..\Middleware\Qt\include" /I"C:\Homework\capstone-YangYi\TopDefense\..\Engine\UIData\\" /I"C:\Homework\capstone-YangYi\TopDefense\..\Engine\\" /I"C:\Homework\capstone-YangYi\TopDefense\..\Middleware\glm\\" /I"C:\Homework\capstone-YangYi\TopDefense\..\Debug\\" /I"C:\Homework\capstone-YangYi\TopDefense\..\Middleware\FreeImage\include" /AI"C:\Homework\capstone-YangYi\TopDefense\\" /AI"C:\Homework\capstone-YangYi\TopDefense\..\Engine" /AI"C:\Homework\capstone-YangYi\TopDefense\..\Middleware\glm\\" /AI"C:\Homework\capstone-YangYi\TopDefense\..\Debug\DebugGUI\\" /AI"C:\Homework\capstone-YangYi\TopDefense\..\Middleware\glew" /AI"C:\Homework\capstone-YangYi\TopDefense\..\Middleware\FreeImage\include" /Zi /nologo /W4 /WX- /Od /D DEBUG_ON /D DEBUG_SHAPE_ON /D WIN32 /D _DEBUG /D _WINDOWS /D _USRDLL /D ENGINE_EXPORTS /D _WINDLL /D _UNICODE /D UNICODE /Gm /EHsc /RTC1 /MDd /GS /fp:precise /Zc:wchar_t /Zc:forScope /Fo"X64\DEBUG\\" /Fd"X64\DEBUG\VC110.PDB" /Gd /TP C:\HOMEWORK\CAPSTONE-YANGYI\ENGINE\ACTORS\COMPONENTS\MESHCOMPONENTS\MESHRENDERER.CPP
^C:\HOMEWORK\CAPSTONE-YANGYI\ENGINE\RENDERCOMPONENTS\GEOMETRYINFO.CPP
/c /IC:\Homework\BatEngine\Middleware\Kinect\inc /I"C:\Homework\capstone-YangYi\TopDefense\..\Core\include" /I"C:\Homework\capstone-YangYi\TopDefense\..\Middleware\NeumontTools\include" /I"C:\Homework\capstone-YangYi\TopDefense\..\Engine\RenderComponents" /I"C:\Homework\capstone-YangYi\TopDefense\..\Middleware\glew\include" /I"C:\Homework\capstone-YangYi\TopDefense\..\Middleware\Qt\include" /I"C:\Homework\capstone-YangYi\TopDefense\..\Engine\UIData\\" /I"C:\Homework\capstone-YangYi\TopDefense\..\Engine\\" /I"C:\Homework\capstone-YangYi\TopDefense\..\Middleware\glm\\" /I"C:\Homework\capstone-YangYi\TopDefense\..\Debug\\" /I"C:\Homework\capstone-YangYi\TopDefense\..\Middleware\FreeImage\include" /AI"C:\Homework\capstone-YangYi\TopDefense\\" /AI"C:\Homework\capstone-YangYi\TopDefense\..\Engine" /AI"C:\Homework\capstone-YangYi\TopDefense\..\Middleware\glm\\" /AI"C:\Homework\capstone-YangYi\TopDefense\..\Debug\DebugGUI\\" /AI"C:\Homework\capstone-YangYi\TopDefense\..\Middleware\glew" /AI"C:\Homework\capstone-YangYi\TopDefense\..\Middleware\FreeImage\include" /Zi /nologo /W4 /WX- /Od /D DEBUG_ON /D DEBUG_SHAPE_ON /D WIN32 /D _DEBUG /D _WINDOWS /D _USRDLL /D ENGINE_EXPORTS /D _WINDLL /D _UNICODE /D UNICODE /Gm /EHsc /RTC1 /MDd /GS /fp:precise /Zc:wchar_t /Zc:forScope /Fo"X64\DEBUG\\" /Fd"X64\DEBUG\VC110.PDB" /Gd /TP C:\HOMEWORK\CAPSTONE-YANGYI\ENGINE\RENDERCOMPONENTS\GEOMETRYINFO.CPP
^C:\HOMEWORK\CAPSTONE-YANGYI\ENGINE\RENDERCOMPONENTS\RENDERABLE.CPP
/c /IC:\Homework\BatEngine\Middleware\Kinect\inc /I"C:\Homework\capstone-YangYi\TopDefense\..\Core\include" /I"C:\Homework\capstone-YangYi\TopDefense\..\Middleware\NeumontTools\include" /I"C:\Homework\capstone-YangYi\TopDefense\..\Engine\RenderComponents" /I"C:\Homework\capstone-YangYi\TopDefense\..\Middleware\glew\include" /I"C:\Homework\capstone-YangYi\TopDefense\..\Middleware\Qt\include" /I"C:\Homework\capstone-YangYi\TopDefense\..\Engine\UIData\\" /I"C:\Homework\capstone-YangYi\TopDefense\..\Engine\\" /I"C:\Homework\capstone-YangYi\TopDefense\..\Middleware\glm\\" /I"C:\Homework\capstone-YangYi\TopDefense\..\Debug\\" /I"C:\Homework\capstone-YangYi\TopDefense\..\Middleware\FreeImage\include" /AI"C:\Homework\capstone-YangYi\TopDefense\\" /AI"C:\Homework\capstone-YangYi\TopDefense\..\Engine" /AI"C:\Homework\capstone-YangYi\TopDefense\..\Middleware\glm\\" /AI"C:\Homework\capstone-YangYi\TopDefense\..\Debug\DebugGUI\\" /AI"C:\Homework\capstone-YangYi\TopDefense\..\Middleware\glew" /AI"C:\Homework\capstone-YangYi\TopDefense\..\Middleware\FreeImage\include" /Zi /nologo /W4 /WX- /Od /D DEBUG_ON /D DEBUG_SHAPE_ON /D WIN32 /D _DEBUG /D _WINDOWS /D _USRDLL /D ENGINE_EXPORTS /D _WINDLL /D _UNICODE /D UNICODE /Gm /EHsc /RTC1 /MDd /GS /fp:precise /Zc:wchar_t /Zc:forScope /Fo"X64\DEBUG\\" /Fd"X64\DEBUG\VC110.PDB" /Gd /TP C:\HOMEWORK\CAPSTONE-YANGYI\ENGINE\RENDERCOMPONENTS\RENDERABLE.CPP
^C:\HOMEWORK\CAPSTONE-YANGYI\ENGINE\RENDERCOMPONENTS\RENDERER.CPP
/c /IC:\Homework\BatEngine\Middleware\Kinect\inc /I"C:\Homework\capstone-YangYi\TopDefense\..\Core\include" /I"C:\Homework\capstone-YangYi\TopDefense\..\Middleware\NeumontTools\include" /I"C:\Homework\capstone-YangYi\TopDefense\..\Engine\RenderComponents" /I"C:\Homework\capstone-YangYi\TopDefense\..\Middleware\glew\include" /I"C:\Homework\capstone-YangYi\TopDefense\..\Middleware\Qt\include" /I"C:\Homework\capstone-YangYi\TopDefense\..\Engine\UIData\\" /I"C:\Homework\capstone-YangYi\TopDefense\..\Engine\\" /I"C:\Homework\capstone-YangYi\TopDefense\..\Middleware\glm\\" /I"C:\Homework\capstone-YangYi\TopDefense\..\Debug\\" /I"C:\Homework\capstone-YangYi\TopDefense\..\Middleware\FreeImage\include" /AI"C:\Homework\capstone-YangYi\TopDefense\\" /AI"C:\Homework\capstone-YangYi\TopDefense\..\Engine" /AI"C:\Homework\capstone-YangYi\TopDefense\..\Middleware\glm\\" /AI"C:\Homework\capstone-YangYi\TopDefense\..\Debug\DebugGUI\\" /AI"C:\Homework\capstone-YangYi\TopDefense\..\Middleware\glew" /AI"C:\Homework\capstone-YangYi\TopDefense\..\Middleware\FreeImage\include" /Zi /nologo /W4 /WX- /Od /D DEBUG_ON /D DEBUG_SHAPE_ON /D WIN32 /D _DEBUG /D _WINDOWS /D _USRDLL /D ENGINE_EXPORTS /D _WINDLL /D _UNICODE /D UNICODE /Gm /EHsc /RTC1 /MDd /GS /fp:precise /Zc:wchar_t /Zc:forScope /Fo"X64\DEBUG\\" /Fd"X64\DEBUG\VC110.PDB" /Gd /TP C:\HOMEWORK\CAPSTONE-YANGYI\ENGINE\RENDERCOMPONENTS\RENDERER.CPP
^C:\HOMEWORK\CAPSTONE-YANGYI\ENGINE\RENDERCOMPONENTS\SHOCKWAVEEFFECT.CPP
/c /IC:\Homework\BatEngine\Middleware\Kinect\inc /I"C:\Homework\capstone-YangYi\TopDefense\..\Core\include" /I"C:\Homework\capstone-YangYi\TopDefense\..\Middleware\NeumontTools\include" /I"C:\Homework\capstone-YangYi\TopDefense\..\Engine\RenderComponents" /I"C:\Homework\capstone-YangYi\TopDefense\..\Middleware\glew\include" /I"C:\Homework\capstone-YangYi\TopDefense\..\Middleware\Qt\include" /I"C:\Homework\capstone-YangYi\TopDefense\..\Engine\UIData\\" /I"C:\Homework\capstone-YangYi\TopDefense\..\Engine\\" /I"C:\Homework\capstone-YangYi\TopDefense\..\Middleware\glm\\" /I"C:\Homework\capstone-YangYi\TopDefense\..\Debug\\" /I"C:\Homework\capstone-YangYi\TopDefense\..\Middleware\FreeImage\include" /AI"C:\Homework\capstone-YangYi\TopDefense\\" /AI"C:\Homework\capstone-YangYi\TopDefense\..\Engine" /AI"C:\Homework\capstone-YangYi\TopDefense\..\Middleware\glm\\" /AI"C:\Homework\capstone-YangYi\TopDefense\..\Debug\DebugGUI\\" /AI"C:\Homework\capstone-YangYi\TopDefense\..\Middleware\glew" /AI"C:\Homework\capstone-YangYi\TopDefense\..\Middleware\FreeImage\include" /Zi /nologo /W4 /WX- /Od /D DEBUG_ON /D DEBUG_SHAPE_ON /D WIN32 /D _DEBUG /D _WINDOWS /D _USRDLL /D ENGINE_EXPORTS /D _WINDLL /D _UNICODE /D UNICODE /Gm /EHsc /RTC1 /MDd /GS /fp:precise /Zc:wchar_t /Zc:forScope /Fo"X64\DEBUG\\" /Fd"X64\DEBUG\VC110.PDB" /Gd /TP C:\HOMEWORK\CAPSTONE-YANGYI\ENGINE\RENDERCOMPONENTS\SHOCKWAVEEFFECT.CPP
^C:\HOMEWORK\CAPSTONE-YANGYI\ENGINE\RENDERCOMPONENTS\TEXTUREINFO.CPP
/c /IC:\Homework\BatEngine\Middleware\Kinect\inc /I"C:\Homework\capstone-YangYi\TopDefense\..\Core\include" /I"C:\Homework\capstone-YangYi\TopDefense\..\Middleware\NeumontTools\include" /I"C:\Homework\capstone-YangYi\TopDefense\..\Engine\RenderComponents" /I"C:\Homework\capstone-YangYi\TopDefense\..\Middleware\glew\include" /I"C:\Homework\capstone-YangYi\TopDefense\..\Middleware\Qt\include" /I"C:\Homework\capstone-YangYi\TopDefense\..\Engine\UIData\\" /I"C:\Homework\capstone-YangYi\TopDefense\..\Engine\\" /I"C:\Homework\capstone-YangYi\TopDefense\..\Middleware\glm\\" /I"C:\Homework\capstone-YangYi\TopDefense\..\Debug\\" /I"C:\Homework\capstone-YangYi\TopDefense\..\Middleware\FreeImage\include" /AI"C:\Homework\capstone-YangYi\TopDefense\\" /AI"C:\Homework\capstone-YangYi\TopDefense\..\Engine" /AI"C:\Homework\capstone-YangYi\TopDefense\..\Middleware\glm\\" /AI"C:\Homework\capstone-YangYi\TopDefense\..\Debug\DebugGUI\\" /AI"C:\Homework\capstone-YangYi\TopDefense\..\Middleware\glew" /AI"C:\Homework\capstone-YangYi\TopDefense\..\Middleware\FreeImage\include" /Zi /nologo /W4 /WX- /Od /D DEBUG_ON /D DEBUG_SHAPE_ON /D WIN32 /D _DEBUG /D _WINDOWS /D _USRDLL /D ENGINE_EXPORTS /D _WINDLL /D _UNICODE /D UNICODE /Gm /EHsc /RTC1 /MDd /GS /fp:precise /Zc:wchar_t /Zc:forScope /Fo"X64\DEBUG\\" /Fd"X64\DEBUG\VC110.PDB" /Gd /TP C:\HOMEWORK\CAPSTONE-YANGYI\ENGINE\RENDERCOMPONENTS\TEXTUREINFO.CPP
^C:\HOMEWORK\CAPSTONE-YANGYI\ENGINE\ACTORS\COMPONENTS\PHYSICS\RIGIDBODY.CPP
/c /IC:\Homework\BatEngine\Middleware\Kinect\inc /I"C:\Homework\capstone-YangYi\TopDefense\..\Core\include" /I"C:\Homework\capstone-YangYi\TopDefense\..\Middleware\NeumontTools\include" /I"C:\Homework\capstone-YangYi\TopDefense\..\Engine\RenderComponents" /I"C:\Homework\capstone-YangYi\TopDefense\..\Middleware\glew\include" /I"C:\Homework\capstone-YangYi\TopDefense\..\Middleware\Qt\include" /I"C:\Homework\capstone-YangYi\TopDefense\..\Engine\UIData\\" /I"C:\Homework\capstone-YangYi\TopDefense\..\Engine\\" /I"C:\Homework\capstone-YangYi\TopDefense\..\Middleware\glm\\" /I"C:\Homework\capstone-YangYi\TopDefense\..\Debug\\" /I"C:\Homework\capstone-YangYi\TopDefense\..\Middleware\FreeImage\include" /AI"C:\Homework\capstone-YangYi\TopDefense\\" /AI"C:\Homework\capstone-YangYi\TopDefense\..\Engine" /AI"C:\Homework\capstone-YangYi\TopDefense\..\Middleware\glm\\" /AI"C:\Homework\capstone-YangYi\TopDefense\..\Debug\DebugGUI\\" /AI"C:\Homework\capstone-YangYi\TopDefense\..\Middleware\glew" /AI"C:\Homework\capstone-YangYi\TopDefense\..\Middleware\FreeImage\include" /Zi /nologo /W4 /WX- /Od /D DEBUG_ON /D DEBUG_SHAPE_ON /D WIN32 /D _DEBUG /D _WINDOWS /D _USRDLL /D ENGINE_EXPORTS /D _WINDLL /D _UNICODE /D UNICODE /Gm /EHsc /RTC1 /MDd /GS /fp:precise /Zc:wchar_t /Zc:forScope /Fo"X64\DEBUG\\" /Fd"X64\DEBUG\VC110.PDB" /Gd /TP C:\HOMEWORK\CAPSTONE-YANGYI\ENGINE\ACTORS\COMPONENTS\PHYSICS\RIGIDBODY.CPP
^C:\HOMEWORK\CAPSTONE-YANGYI\ENGINE\ACTORS\COMPONENTS\PHYSICS\STATICMESH.CPP
/c /IC:\Homework\BatEngine\Middleware\Kinect\inc /I"C:\Homework\capstone-YangYi\TopDefense\..\Core\include" /I"C:\Homework\capstone-YangYi\TopDefense\..\Middleware\NeumontTools\include" /I"C:\Homework\capstone-YangYi\TopDefense\..\Engine\RenderComponents" /I"C:\Homework\capstone-YangYi\TopDefense\..\Middleware\glew\include" /I"C:\Homework\capstone-YangYi\TopDefense\..\Middleware\Qt\include" /I"C:\Homework\capstone-YangYi\TopDefense\..\Engine\UIData\\" /I"C:\Homework\capstone-YangYi\TopDefense\..\Engine\\" /I"C:\Homework\capstone-YangYi\TopDefense\..\Middleware\glm\\" /I"C:\Homework\capstone-YangYi\TopDefense\..\Debug\\" /I"C:\Homework\capstone-YangYi\TopDefense\..\Middleware\FreeImage\include" /AI"C:\Homework\capstone-YangYi\TopDefense\\" /AI"C:\Homework\capstone-YangYi\TopDefense\..\Engine" /AI"C:\Homework\capstone-YangYi\TopDefense\..\Middleware\glm\\" /AI"C:\Homework\capstone-YangYi\TopDefense\..\Debug\DebugGUI\\" /AI"C:\Homework\capstone-YangYi\TopDefense\..\Middleware\glew" /AI"C:\Homework\capstone-YangYi\TopDefense\..\Middleware\FreeImage\include" /Zi /nologo /W4 /WX- /Od /D DEBUG_ON /D DEBUG_SHAPE_ON /D WIN32 /D _DEBUG /D _WINDOWS /D _USRDLL /D ENGINE_EXPORTS /D _WINDLL /D _UNICODE /D UNICODE /Gm /EHsc /RTC1 /MDd /GS /fp:precise /Zc:wchar_t /Zc:forScope /Fo"X64\DEBUG\\" /Fd"X64\DEBUG\VC110.PDB" /Gd /TP C:\HOMEWORK\CAPSTONE-YANGYI\ENGINE\ACTORS\COMPONENTS\PHYSICS\STATICMESH.CPP
^C:\HOMEWORK\CAPSTONE-YANGYI\ENGINE\KINECTMODULE\KINECTROOMSCANNER.CPP
/c /IC:\Homework\BatEngine\Middleware\Kinect\inc /I"C:\Homework\capstone-YangYi\TopDefense\..\Core\include" /I"C:\Homework\capstone-YangYi\TopDefense\..\Middleware\NeumontTools\include" /I"C:\Homework\capstone-YangYi\TopDefense\..\Engine\RenderComponents" /I"C:\Homework\capstone-YangYi\TopDefense\..\Middleware\glew\include" /I"C:\Homework\capstone-YangYi\TopDefense\..\Middleware\Qt\include" /I"C:\Homework\capstone-YangYi\TopDefense\..\Engine\UIData\\" /I"C:\Homework\capstone-YangYi\TopDefense\..\Engine\\" /I"C:\Homework\capstone-YangYi\TopDefense\..\Middleware\glm\\" /I"C:\Homework\capstone-YangYi\TopDefense\..\Debug\\" /I"C:\Homework\capstone-YangYi\TopDefense\..\Middleware\FreeImage\include" /AI"C:\Homework\capstone-YangYi\TopDefense\\" /AI"C:\Homework\capstone-YangYi\TopDefense\..\Engine" /AI"C:\Homework\capstone-YangYi\TopDefense\..\Middleware\glm\\" /AI"C:\Homework\capstone-YangYi\TopDefense\..\Debug\DebugGUI\\" /AI"C:\Homework\capstone-YangYi\TopDefense\..\Middleware\glew" /AI"C:\Homework\capstone-YangYi\TopDefense\..\Middleware\FreeImage\include" /Zi /nologo /W4 /WX- /Od /D DEBUG_ON /D DEBUG_SHAPE_ON /D WIN32 /D _DEBUG /D _WINDOWS /D _USRDLL /D ENGINE_EXPORTS /D _WINDLL /D _UNICODE /D UNICODE /Gm /EHsc /RTC1 /MDd /GS /fp:precise /Zc:wchar_t /Zc:forScope /Fo"X64\DEBUG\\" /Fd"X64\DEBUG\VC110.PDB" /Gd /TP C:\HOMEWORK\CAPSTONE-YANGYI\ENGINE\KINECTMODULE\KINECTROOMSCANNER.CPP
