20
30
7.7348594.92942100100.0018470.001992
-7.7348594.92942100100.3313850.001992
7.7348594.92942142.434090100.0018470.33153
-7.7348594.92942142.434090100.3313850.33153
7.7348594.92942142.434090010.3382120.331528
-7.7348594.92942142.434090010.3382120.00199
7.734859-4.92942142.434090010.6677470.331528
-7.734859-4.92942142.434090010.6677470.00199
7.734859-4.92942142.434090-100.260780.335231
-7.734859-4.92942142.434090-100.5903170.335231
7.734859-4.92942100-100.260780.664769
-7.734859-4.92942100-100.5903170.664769
-7.734859-4.9294210-1000.5960070.664769
-7.734859-4.92942142.43409-1000.5960070.335231
-7.7348594.9294210-1000.9255450.664769
-7.7348594.92942142.43409-1000.9255450.335231
7.734859-4.92942142.434091000.0018480.668471
7.734859-4.92942101000.3313850.668471
7.7348594.92942142.434091000.0018480.998008
7.7348594.92942101000.3313850.998008
0
1
2
2
1
3
4
5
6
6
5
7
8
9
10
10
9
11
12
13
14
14
13
15
16
17
18
18
17
19
